Part 3 NEw/build/cpu_wavedata.vcd
$date
	Wed Jun 28 09:36:11 2023
$end
$version
	Icarus Verilog
$end
$timescale
	100ps
$end
$scope module cpu_tb $end
$var wire 8 ! WRITEDATA [7:0] $end
$var wire 1 " WRITE $end
$var wire 8 # READDATA [7:0] $end
$var wire 1 $ READ $end
$var wire 32 % PC [31:0] $end
$var wire 32 & MEM_WRITEDATA [31:0] $end
$var wire 1 ' MEM_WRITE $end
$var wire 32 ( MEM_READDATA [31:0] $end
$var wire 1 ) MEM_READ $end
$var wire 1 * MEM_BUSYWAIT $end
$var wire 6 + MEM_ADDRESS [5:0] $end
$var wire 1 , INSTR_MEM_READ $end
$var wire 128 - INSTR_MEM_INSTR [127:0] $end
$var wire 1 . INSTR_MEM_BUSYWAIT $end
$var wire 6 / INSTR_MEM_ADDRESS [5:0] $end
$var wire 1 0 INSTR_BUSYWAIT $end
$var wire 32 1 INSTRUCTION [31:0] $end
$var wire 1 2 BUSYWAIT $end
$var wire 8 3 ADDRESS [7:0] $end
$var reg 1 4 CLK $end
$var reg 1 5 RESET $end
$scope module my_INSTR_MEMemory $end
$var wire 1 4 clock $end
$var wire 1 , read $end
$var wire 6 6 address [5:0] $end
$var reg 1 . busywait $end
$var reg 1 7 readaccess $end
$var reg 128 8 readinst [127:0] $end
$upscope $end
$scope module my_datacache $end
$var wire 32 9 cache_block [31:0] $end
$var wire 1 4 clock $end
$var wire 1 : dirty $end
$var wire 1 ; hit $end
$var wire 1 5 reset $end
$var wire 1 < valid $end
$var wire 1 " write $end
$var wire 1 = tagMatch $end
$var wire 3 > tag [2:0] $end
$var wire 1 $ read $end
$var wire 2 ? offset [1:0] $end
$var wire 32 @ mem_readdata [31:0] $end
$var wire 1 * mem_busywait $end
$var wire 3 A index [2:0] $end
$var wire 8 B cpu_writeData [7:0] $end
$var wire 3 C cache_tag [2:0] $end
$var wire 8 D address [7:0] $end
$var reg 1 2 busywait $end
$var reg 1 E cacheWrite $end
$var reg 8 F cpu_readData [7:0] $end
$var reg 6 G mem_address [5:0] $end
$var reg 1 ) mem_read $end
$var reg 1 ' mem_write $end
$var reg 32 H mem_writedata [31:0] $end
$var reg 3 I next_state [2:0] $end
$var reg 3 J state [2:0] $end
$var integer 32 K i [31:0] $end
$upscope $end
$scope module my_datamem $end
$var wire 6 L address [5:0] $end
$var wire 1 4 clock $end
$var wire 1 ) read $end
$var wire 1 5 reset $end
$var wire 1 ' write $end
$var wire 32 M writedata [31:0] $end
$var reg 1 * busywait $end
$var reg 1 N readaccess $end
$var reg 32 O readdata [31:0] $end
$var reg 1 P writeaccess $end
$var integer 32 Q i [31:0] $end
$upscope $end
$scope module my_icache $end
$var wire 10 R ADDRESS [9:0] $end
$var wire 1 4 CLK $end
$var wire 1 S HIT $end
$var wire 1 5 RESET $end
$var wire 1 T VALID $end
$var wire 128 U instr_block [127:0] $end
$var wire 1 . mem_BUSYWAIT $end
$var wire 128 V mem_inst [127:0] $end
$var wire 1 W tagMatch $end
$var wire 3 X tag [2:0] $end
$var wire 32 Y readinst [31:0] $end
$var wire 2 Z offset [1:0] $end
$var wire 3 [ index [2:0] $end
$var wire 3 \ cache_tag [2:0] $end
$var reg 1 0 BUSYWAIT $end
$var reg 32 ] loaded_instr [31:0] $end
$var reg 6 ^ mem_ADDRESS [5:0] $end
$var reg 1 , mem_read $end
$var reg 3 _ next_state [2:0] $end
$var reg 3 ` state [2:0] $end
$var integer 32 a i [31:0] $end
$upscope $end
$scope module mycpu $end
$var wire 8 b ADDRESS [7:0] $end
$var wire 1 2 BUSYWAIT $end
$var wire 1 c CHOICE $end
$var wire 1 4 CLK $end
$var wire 32 d INSTRUCTION [31:0] $end
$var wire 1 0 INSTR_BUSYWAIT $end
$var wire 8 e READDATA [7:0] $end
$var wire 1 5 RESET $end
$var wire 8 f WRITEDATA [7:0] $end
$var wire 8 g registerOp [7:0] $end
$var wire 32 h newPC [31:0] $end
$var wire 8 i negatedOp [7:0] $end
$var wire 1 j flowSelect $end
$var wire 1 k ZERO $end
$var wire 3 l WRITEREG [2:0] $end
$var wire 32 m TARGET [31:0] $end
$var wire 8 n REG_INPUT [7:0] $end
$var wire 8 o REGOUT2 [7:0] $end
$var wire 8 p REGOUT1 [7:0] $end
$var wire 3 q READREG2 [2:0] $end
$var wire 3 r READREG1 [2:0] $end
$var wire 32 s PCout [31:0] $end
$var wire 32 t PCadd [31:0] $end
$var wire 8 u OPERAND2 [7:0] $end
$var wire 8 v OFFSET [7:0] $end
$var wire 8 w IMMEDIATE [7:0] $end
$var wire 8 x ALURESULT [7:0] $end
$var reg 3 y ALUOP [2:0] $end
$var reg 1 z BRANCH $end
$var reg 1 { Data_MUX_Select $end
$var reg 1 | JUMP $end
$var reg 8 } OPCODE [7:0] $end
$var reg 32 ~ PC [31:0] $end
$var reg 1 $ READ $end
$var reg 4 !" SHIFT [3:0] $end
$var reg 1 " WRITE $end
$var reg 1 "" WRITEENABLE $end
$var reg 1 #" immSelect $end
$var reg 1 $" signSelect $end
$scope module PC_adder $end
$var wire 32 %" PC [31:0] $end
$var wire 32 &" PCadd [31:0] $end
$upscope $end
$scope module busywaitMUX $end
$var wire 32 '" IN2 [31:0] $end
$var wire 1 (" SELECT $end
$var wire 32 )" IN1 [31:0] $end
$var reg 32 *" OUT [31:0] $end
$upscope $end
$scope module datamux $end
$var wire 8 +" IN2 [7:0] $end
$var wire 1 { SELECT $end
$var wire 8 ," IN1 [7:0] $end
$var reg 8 -" OUT [7:0] $end
$upscope $end
$scope module flowctrlmux $end
$var wire 32 ." IN1 [31:0] $end
$var wire 1 j SELECT $end
$var wire 32 /" IN2 [31:0] $end
$var reg 32 0" OUT [31:0] $end
$upscope $end
$scope module immediateMUX $end
$var wire 8 1" IN2 [7:0] $end
$var wire 1 #" SELECT $end
$var wire 8 2" IN1 [7:0] $end
$var reg 8 3" OUT [7:0] $end
$upscope $end
$scope module my_OFFSETADDER $end
$var wire 8 4" OFFSET [7:0] $end
$var wire 32 5" PC [31:0] $end
$var wire 22 6" signBits [21:0] $end
$var wire 32 7" TARGET [31:0] $end
$upscope $end
$scope module my_alu $end
$var wire 1 c CHOICE $end
$var wire 8 8" DATA2 [7:0] $end
$var wire 3 9" SELECT [2:0] $end
$var wire 4 :" SHIFT [3:0] $end
$var wire 1 k ZERO $end
$var wire 8 ;" DATA1 [7:0] $end
$var wire 8 <" C7 [7:0] $end
$var wire 8 =" C6 [7:0] $end
$var wire 8 >" C5 [7:0] $end
$var wire 8 ?" C4 [7:0] $end
$var wire 8 @" C3 [7:0] $end
$var wire 8 A" C2 [7:0] $end
$var wire 8 B" C1 [7:0] $end
$var wire 8 C" C0 [7:0] $end
$var reg 8 D" RESULT [7:0] $end
$scope module case0 $end
$var wire 8 E" DATA2 [7:0] $end
$var wire 8 F" RESULT [7:0] $end
$var wire 8 G" DATA1 [7:0] $end
$upscope $end
$scope module case1 $end
$var wire 8 H" DATA2 [7:0] $end
$var wire 8 I" RESULT [7:0] $end
$var wire 8 J" DATA1 [7:0] $end
$upscope $end
$scope module case2 $end
$var wire 8 K" DATA2 [7:0] $end
$var wire 8 L" RESULT [7:0] $end
$var wire 8 M" DATA1 [7:0] $end
$upscope $end
$scope module case3 $end
$var wire 8 N" DATA2 [7:0] $end
$var wire 8 O" RESULT [7:0] $end
$var wire 8 P" DATA1 [7:0] $end
$upscope $end
$scope module case4 $end
$var wire 8 Q" IN2 [7:0] $end
$var wire 8 R" New_Num [7:0] $end
$var wire 8 S" IN1 [7:0] $end
$var reg 8 T" sum [7:0] $end
$upscope $end
$scope module case5 $end
$var wire 8 U" Out_num [7:0] $end
$var wire 4 V" SHIFT [3:0] $end
$var wire 8 W" Number [7:0] $end
$var reg 8 X" New_Num [7:0] $end
$upscope $end
$scope module case6 $end
$var wire 8 Y" Out_num [7:0] $end
$var wire 4 Z" SHIFT [3:0] $end
$var wire 8 [" Number [7:0] $end
$var reg 8 \" New_Num [7:0] $end
$upscope $end
$scope module case7 $end
$var wire 1 c Chocie $end
$var wire 8 ]" Out_num [7:0] $end
$var wire 4 ^" SHIFT [3:0] $end
$var wire 8 _" Number [7:0] $end
$var reg 8 `" New_Num [7:0] $end
$upscope $end
$upscope $end
$scope module my_flowControl $end
$var wire 1 z BRANCH $end
$var wire 1 | JUMP $end
$var wire 1 j OUT $end
$var wire 1 k ZERO $end
$upscope $end
$scope module my_reg $end
$var wire 1 4 CLK $end
$var wire 8 a" IN [7:0] $end
$var wire 3 b" INADDRESS [2:0] $end
$var wire 8 c" OUT1 [7:0] $end
$var wire 3 d" OUT1ADDRESS [2:0] $end
$var wire 8 e" OUT2 [7:0] $end
$var wire 3 f" OUT2ADDRESS [2:0] $end
$var wire 1 5 RESET $end
$var wire 1 "" WRITE $end
$var integer 32 g" i [31:0] $end
$upscope $end
$scope module my_twoComp $end
$var wire 8 h" IN [7:0] $end
$var wire 8 i" OUT [7:0] $end
$upscope $end
$scope module negationMUX $end
$var wire 8 j" IN1 [7:0] $end
$var wire 8 k" IN2 [7:0] $end
$var wire 1 $" SELECT $end
$var reg 8 l" OUT [7:0] $end
$upscope $end
$upscope $end
$upscope $end
$enddefinitions $end
#0
$dumpvars
bx l"
bx k"
bx j"
bx i"
bx h"
bx g"
bx f"
bx e"
bx d"
bx c"
bx b"
bx a"
bx `"
bx _"
bx ^"
bx ]"
bx \"
bx ["
bx Z"
bx Y"
bx X"
bx W"
bx V"
bx U"
bx T"
bx S"
bx R"
bx Q"
bx P"
bx O"
bx N"
bx M"
bx L"
bx K"
bx J"
bx I"
bx H"
bx G"
bx F"
bx E"
bx D"
bx C"
bx B"
bx A"
bx @"
bx ?"
bx >"
bx ="
bx <"
bx ;"
bx :"
bx 9"
bx 8"
bx 7"
bx 6"
bx 5"
bx 4"
bx 3"
bx 2"
bx 1"
bx 0"
bx /"
bx ."
bx -"
bx ,"
bx +"
bx *"
bx )"
x("
bx '"
bx &"
bx %"
x$"
x#"
x""
bx !"
bx ~
bx }
x|
x{
xz
bx y
bx x
bx w
bx v
bx u
bx t
bx s
bx r
bx q
bx p
bx o
bx n
bx m
bx l
xk
xj
bx i
bx h
bx g
bx f
bx e
bx d
zc
bx b
b1000 a
b0 `
b0 _
bx ^
bx ]
bx \
bx [
bx Z
bx Y
bx X
xW
bx V
bx U
xT
xS
bx R
b100000000 Q
0P
bx O
0N
b0xxxxxxxx M
bx L
b1000 K
b0 J
b0 I
b0xxxxxxxx H
bx G
bx F
xE
bx D
bx C
bx B
bx A
bx @
bx ?
bx >
x=
x<
x;
x:
bx 9
bx 8
07
bx 6
15
04
bx 3
x2
bx 1
x0
bx /
0.
bx -
0,
bx +
0*
0)
bx (
0'
b0xxxxxxxx &
bx %
x$
bx #
x"
bx !
$end
#10
b0x \
b0x C
#40
b1000 a
b1000 K
14
#50
b0 h
b0 *"
1("
b0 Z
b0 [
b0 X
10
b0 R
b1000 g"
b0 %
b0 ~
b0 %"
b0 '"
05
#60
b1 _
0S
b100 s
b100 )"
b100 0"
0T
b100 t
b100 &"
b100 ."
b100 5"
#80
04
#120
17
1.
b0 /
b0 6
b0 ^
1,
b1 _
b1 `
14
#160
04
#200
14
#240
04
#280
14
#320
04
#360
14
#400
04
#440
14
#480
04
#520
14
#560
04
#600
14
bx00011001 -
bx00011001 8
bx00011001 V
#640
04
#680
14
#720
04
#760
14
#800
04
#840
14
#880
04
#920
14
#960
04
#1000
14
bx0000000000011001 -
bx0000000000011001 8
bx0000000000011001 V
#1040
04
#1080
14
#1120
04
#1160
14
#1200
04
#1240
14
#1280
04
#1320
14
#1360
04
#1400
14
bx000001000000000000011001 -
bx000001000000000000011001 8
bx000001000000000000011001 V
#1440
04
#1480
14
#1520
04
#1560
14
#1600
04
#1640
14
#1680
04
#1720
14
#1760
04
#1800
14
bx00000000000001000000000000011001 -
bx00000000000001000000000000011001 8
bx00000000000001000000000000011001 V
#1840
04
#1880
14
#1920
04
#1960
14
#2000
04
#2040
14
#2080
04
#2120
14
#2160
04
#2200
14
bx0010001100000000000001000000000000011001 -
bx0010001100000000000001000000000000011001 8
bx0010001100000000000001000000000000011001 V
#2240
04
#2280
14
#2320
04
#2360
14
#2400
04
#2440
14
#2480
04
#2520
14
#2560
04
#2600
14
bx000000000010001100000000000001000000000000011001 -
bx000000000010001100000000000001000000000000011001 8
bx000000000010001100000000000001000000000000011001 V
#2640
04
#2680
14
#2720
04
#2760
14
#2800
04
#2840
14
#2880
04
#2920
14
#2960
04
#3000
14
bx00000101000000000010001100000000000001000000000000011001 -
bx00000101000000000010001100000000000001000000000000011001 8
bx00000101000000000010001100000000000001000000000000011001 V
#3040
04
#3080
14
#3120
04
#3160
14
#3200
04
#3240
14
#3280
04
#3320
14
#3360
04
#3400
14
bx0000000000000101000000000010001100000000000001000000000000011001 -
bx0000000000000101000000000010001100000000000001000000000000011001 8
bx0000000000000101000000000010001100000000000001000000000000011001 V
#3440
04
#3480
14
#3520
04
#3560
14
#3600
04
#3640
14
#3680
04
#3720
14
#3760
04
#3800
14
bx000001010000000000000101000000000010001100000000000001000000000000011001 -
bx000001010000000000000101000000000010001100000000000001000000000000011001 8
bx000001010000000000000101000000000010001100000000000001000000000000011001 V
#3840
04
#3880
14
#3920
04
#3960
14
#4000
04
#4040
14
#4080
04
#4120
14
#4160
04
#4200
14
bx00000100000001010000000000000101000000000010001100000000000001000000000000011001 -
bx00000100000001010000000000000101000000000010001100000000000001000000000000011001 8
bx00000100000001010000000000000101000000000010001100000000000001000000000000011001 V
#4240
04
#4280
14
#4320
04
#4360
14
#4400
04
#4440
14
#4480
04
#4520
14
#4560
04
#4600
14
bx0000011000000100000001010000000000000101000000000010001100000000000001000000000000011001 -
bx0000011000000100000001010000000000000101000000000010001100000000000001000000000000011001 8
bx0000011000000100000001010000000000000101000000000010001100000000000001000000000000011001 V
#4640
04
#4680
14
#4720
04
#4760
14
#4800
04
#4840
14
#4880
04
#4920
14
#4960
04
#5000
14
bx000000100000011000000100000001010000000000000101000000000010001100000000000001000000000000011001 -
bx000000100000011000000100000001010000000000000101000000000010001100000000000001000000000000011001 8
bx000000100000011000000100000001010000000000000101000000000010001100000000000001000000000000011001 V
#5040
04
#5080
14
#5120
04
#5160
14
#5200
04
#5240
14
#5280
04
#5320
14
#5360
04
#5400
14
bx01011010000000100000011000000100000001010000000000000101000000000010001100000000000001000000000000011001 -
bx01011010000000100000011000000100000001010000000000000101000000000010001100000000000001000000000000011001 8
bx01011010000000100000011000000100000001010000000000000101000000000010001100000000000001000000000000011001 V
#5440
04
#5480
14
#5520
04
#5560
14
#5600
04
#5640
14
#5680
04
#5720
14
#5760
04
#5800
14
bx0000000001011010000000100000011000000100000001010000000000000101000000000010001100000000000001000000000000011001 -
bx0000000001011010000000100000011000000100000001010000000000000101000000000010001100000000000001000000000000011001 8
bx0000000001011010000000100000011000000100000001010000000000000101000000000010001100000000000001000000000000011001 V
#5840
04
#5880
14
#5920
04
#5960
14
#6000
04
#6040
14
#6080
04
#6120
14
#6160
04
#6200
14
bx000000010000000001011010000000100000011000000100000001010000000000000101000000000010001100000000000001000000000000011001 -
bx000000010000000001011010000000100000011000000100000001010000000000000101000000000010001100000000000001000000000000011001 8
bx000000010000000001011010000000100000011000000100000001010000000000000101000000000010001100000000000001000000000000011001 V
#6240
04
#6280
14
#6320
04
#6360
14
#6400
04
#6440
14
#6480
04
#6520
14
#6560
04
#6600
b0 `
b1 _
14
07
0.
b10000000001011010000000100000011000000100000001010000000000000101000000000010001100000000000001000000000000011001 -
b10000000001011010000000100000011000000100000001010000000000000101000000000010001100000000000001000000000000011001 8
b10000000001011010000000100000011000000100000001010000000000000101000000000010001100000000000001000000000000011001 V
#6610
bx /
bx 6
bx ^
0,
#6620
b0 _
xS
b0 \
1T
b10000000001011010000000100000011000000100000001010000000000000101000000000010001100000000000001000000000000011001 U
#6629
1S
1W
#6630
b0 r
b0 d"
b1 q
b1 f"
b100 l
b100 b"
b0 6"
b11001 w
b11001 1"
b100 v
b100 4"
b1000000000000011001 1
b1000000000000011001 Y
b1000000000000011001 d
b1000000000000011001 ]
#6640
b100 h
b100 *"
0j
0("
02
b11001 u
b11001 3"
b11001 8"
b11001 E"
b11001 H"
b11001 K"
b11001 N"
b11001 Q"
00
0{
0"
0$
1""
0z
0|
0$"
1#"
b0 y
b0 9"
b0 }
04
#6650
0k
b0 >
b110 A
b1 ?
b11001 n
b11001 -"
b11001 a"
b11001 3
b11001 D
b11001 b
b11001 x
b11001 ,"
b11001 D"
b0 g
b0 2"
b0 l"
b0xx00x A"
b0xx00x L"
bx11xx1 @"
bx11xx1 O"
b11001 C"
b11001 F"
b0 !
b0 B
b0 f
b0 p
b0 ;"
b0 G"
b0 J"
b0 M"
b0 P"
b0 S"
b0 W"
b0 ["
b0 _"
b0 c"
b0 o
b0 e"
b0 h"
b0 j"
b10100 m
b10100 /"
b10100 7"
#6660
0;
0<
0:
b11001 @"
b11001 O"
b0 A"
b0 L"
b0 >"
b0 U"
b0 X"
b0 ="
b0 Y"
b0 \"
b0 i
b0 i"
b0 k"
b0 ?"
b0 R"
b0 T"
#6670
b11001 B"
b11001 I"
#6680
14
#6690
1("
b1 Z
10
b100 R
b100 %
b100 ~
b100 %"
b100 '"
#6700
b100011 u
b100011 3"
b100011 8"
b100011 E"
b100011 H"
b100011 K"
b100011 N"
b100011 Q"
b11 q
b11 f"
b101 l
b101 b"
b100011 w
b100011 1"
b101 v
b101 4"
b1010000000000100011 1
b1010000000000100011 Y
b1010000000000100011 d
b1000 s
b1000 )"
b1000 0"
b1010000000000100011 ]
b1000 t
b1000 &"
b1000 ."
b1000 5"
#6710
b1 >
b0 A
b11 ?
b100011 n
b100011 -"
b100011 a"
b100011 3
b100011 D
b100011 b
b100011 x
b100011 ,"
b100011 D"
b100011 @"
b100011 O"
b100011 C"
b100011 F"
#6720
b1000 h
b1000 *"
0("
00
b100011 B"
b100011 I"
b11100 m
b11100 /"
b11100 7"
04
#6760
14
#6770
1("
b10 Z
10
b1000 R
b1000 %
b1000 ~
b1000 %"
b1000 '"
#6780
b100 r
b100 d"
b101 u
b101 3"
b101 8"
b101 E"
b101 H"
b101 K"
b101 N"
b101 Q"
b101 q
b101 f"
b110 l
b110 b"
b101 w
b101 1"
b110 v
b110 4"
b10000001100000010000000101 1
b10000001100000010000000101 Y
b10000001100000010000000101 d
b1100 s
b1100 )"
b1100 0"
b10000001100000010000000101 ]
b1100 t
b1100 &"
b1100 ."
b1100 5"
#6790
b0 u
b0 3"
b0 8"
b0 E"
b0 H"
b0 K"
b0 N"
b0 Q"
b101 @"
b101 O"
b101 C"
b101 F"
0#"
b1 y
b1 9"
b10 }
#6800
b1100 h
b1100 *"
b100011 u
b100011 3"
b100011 8"
b100011 E"
b100011 H"
b100011 K"
b100011 N"
b100011 Q"
0("
b100011 g
b100011 2"
b100011 l"
00
b0 @"
b0 O"
b0 C"
b0 F"
b11001 !
b11001 B
b11001 f
b11001 p
b11001 ;"
b11001 G"
b11001 J"
b11001 M"
b11001 P"
b11001 S"
b11001 W"
b11001 ["
b11001 _"
b11001 c"
b100011 o
b100011 e"
b100011 h"
b100011 j"
b100100 m
b100100 /"
b100100 7"
04
#6810
b1 A"
b1 L"
b100011 C"
b100011 F"
b111011 @"
b111011 O"
b11011101 i
b11011101 i"
b11011101 k"
#6820
b111 A
b0 ?
b111100 n
b111100 -"
b111100 a"
b111100 3
b111100 D
b111100 b
b111100 x
b111100 ,"
b111100 D"
b1101011 ?"
b1101011 R"
b1101011 T"
b111100 B"
b111100 I"
#6840
14
#6850
1("
b11 Z
10
b1100 R
b1100 %
b1100 ~
b1100 %"
b1100 '"
#6860
b0 r
b0 d"
b10 q
b10 f"
b1 l
b1 b"
b1011010 w
b1011010 1"
b1 v
b1 4"
b10000000001011010 1
b10000000001011010 Y
b10000000001011010 d
b10000 s
b10000 )"
b10000 0"
b10000000001011010 ]
b10000 t
b10000 &"
b10000 ."
b10000 5"
#6870
b0 A
b11 ?
b100011 n
b100011 -"
b100011 a"
b1011010 u
b1011010 3"
b1011010 8"
b1011010 E"
b1011010 H"
b1011010 K"
b1011010 N"
b1011010 Q"
b100011 3
b100011 D
b100011 b
b100011 x
b100011 ,"
b100011 D"
1#"
b0 y
b0 9"
b0 }
#6880
b10000 h
b10000 *"
b10 >
b110 A
b10 ?
b1011010 n
b1011010 -"
b1011010 a"
0("
b1011010 3
b1011010 D
b1011010 b
b1011010 x
b1011010 ,"
b1011010 D"
b0 g
b0 2"
b0 l"
00
b11000 A"
b11000 L"
b1011011 @"
b1011011 O"
b1011010 C"
b1011010 F"
b0 !
b0 B
b0 f
b0 p
b0 ;"
b0 G"
b0 J"
b0 M"
b0 P"
b0 S"
b0 W"
b0 ["
b0 _"
b0 c"
b0 o
b0 e"
b0 h"
b0 j"
b10100 m
b10100 /"
b10100 7"
04
#6889
0=
#6890
b1011010 @"
b1011010 O"
b0 A"
b0 L"
b0 i
b0 i"
b0 k"
b0 ?"
b0 R"
b0 T"
#6900
b1011010 B"
b1011010 I"
#6920
14
#6930
1("
b0 Z
b1 [
10
b10000 R
b10000 %
b10000 ~
b10000 %"
b10000 '"
#6940
bx r
bx d"
bx u
bx 3"
bx 8"
bx E"
bx H"
bx K"
bx N"
bx Q"
bx q
bx f"
bx l
bx b"
bx 6"
bx w
bx 1"
bx v
bx 4"
b1 _
bx 1
bx Y
bx d
0S
b10100 s
b10100 )"
b10100 0"
b1000000000000011001 ]
bx U
b0x \
0T
b10100 t
b10100 &"
b10100 ."
b10100 5"
#6949
xW
#6950
xk
bx >
bx A
bx ?
bx n
bx -"
bx a"
bx 3
bx D
bx b
bx x
bx ,"
bx D"
bx @"
bx O"
bx C"
bx F"
bx }
#6959
x=
#6960
x;
bx g
bx 2"
bx l"
x<
x:
bx ?"
bx R"
bx T"
bx !
bx B
bx f
bx p
bx ;"
bx G"
bx J"
bx M"
bx P"
bx S"
bx W"
bx ["
bx _"
bx c"
bx B"
bx I"
bx o
bx e"
bx h"
bx j"
bx m
bx /"
bx 7"
04
#6970
bx A"
bx L"
bx >"
bx U"
bx X"
bx i
bx i"
bx k"
#7000
17
1.
b1 /
b1 6
b1 ^
1,
b1 _
b1 `
14
#7040
04
#7080
14
#7120
04
#7160
14
#7200
04
#7240
14
#7280
04
#7320
14
#7360
04
#7400
14
#7440
04
#7480
14
b10000000001011010000000100000011000000100000001010000000000000101000000000010001100000000000001000000000000000100 -
b10000000001011010000000100000011000000100000001010000000000000101000000000010001100000000000001000000000000000100 8
b10000000001011010000000100000011000000100000001010000000000000101000000000010001100000000000001000000000000000100 V
#7520
04
#7560
14
#7600
04
#7640
14
#7680
04
#7720
14
#7760
04
#7800
14
#7840
04
#7880
14
b10000000001011010000000100000011000000100000001010000000000000101000000000010001100000000000001000000000100000100 -
b10000000001011010000000100000011000000100000001010000000000000101000000000010001100000000000001000000000100000100 8
b10000000001011010000000100000011000000100000001010000000000000101000000000010001100000000000001000000000100000100 V
#7920
04
#7960
14
#8000
04
#8040
14
#8080
04
#8120
14
#8160
04
#8200
14
#8240
04
#8280
14
b10000000001011010000000100000011000000100000001010000000000000101000000000010001100000000000000010000000100000100 -
b10000000001011010000000100000011000000100000001010000000000000101000000000010001100000000000000010000000100000100 8
b10000000001011010000000100000011000000100000001010000000000000101000000000010001100000000000000010000000100000100 V
#8320
04
#8360
14
#8400
04
#8440
14
#8480
04
#8520
14
#8560
04
#8600
14
#8640
04
#8680
14
b10000000001011010000000100000011000000100000001010000000000000101000000000010001100000011000000010000000100000100 -
b10000000001011010000000100000011000000100000001010000000000000101000000000010001100000011000000010000000100000100 8
b10000000001011010000000100000011000000100000001010000000000000101000000000010001100000011000000010000000100000100 V
#8720
04
#8760
14
#8800
04
#8840
14
#8880
04
#8920
14
#8960
04
#9000
14
#9040
04
#9080
14
b1000000000101101000000010000001100000010000000101000000000000010100000000xxxxxxxx00000011000000010000000100000100 -
b1000000000101101000000010000001100000010000000101000000000000010100000000xxxxxxxx00000011000000010000000100000100 8
b1000000000101101000000010000001100000010000000101000000000000010100000000xxxxxxxx00000011000000010000000100000100 V
#9120
04
#9160
14
#9200
04
#9240
14
#9280
04
#9320
14
#9360
04
#9400
14
#9440
04
#9480
14
b10000000001011010000000100000011000000100000001010000000000000101xxxxxxxxxxxxxxxx00000011000000010000000100000100 -
b10000000001011010000000100000011000000100000001010000000000000101xxxxxxxxxxxxxxxx00000011000000010000000100000100 8
b10000000001011010000000100000011000000100000001010000000000000101xxxxxxxxxxxxxxxx00000011000000010000000100000100 V
#9520
04
#9560
14
#9600
04
#9640
14
#9680
04
#9720
14
#9760
04
#9800
14
#9840
04
#9880
14
b100000000010110100000001000000110000001000000010100000000xxxxxxxxxxxxxxxxxxxxxxxx00000011000000010000000100000100 -
b100000000010110100000001000000110000001000000010100000000xxxxxxxxxxxxxxxxxxxxxxxx00000011000000010000000100000100 8
b100000000010110100000001000000110000001000000010100000000xxxxxxxxxxxxxxxxxxxxxxxx00000011000000010000000100000100 V
#9920
04
#9960
14
#10000
04
#10040
14
#10080
04
#10120
14
#10160
04
#10200
14
#10240
04
#10280
14
b1000000000101101000000010000001100000010000000101xxxxxxxxxxxxxxxxxxxxxxxxxxxxxxxx00000011000000010000000100000100 -
b1000000000101101000000010000001100000010000000101xxxxxxxxxxxxxxxxxxxxxxxxxxxxxxxx00000011000000010000000100000100 8
b1000000000101101000000010000001100000010000000101xxxxxxxxxxxxxxxxxxxxxxxxxxxxxxxx00000011000000010000000100000100 V
#10320
04
#10360
14
#10400
04
#10440
14
#10480
04
#10520
14
#10560
04
#10600
14
#10640
04
#10680
14
b10000000001011010000000100000011000000100xxxxxxxxxxxxxxxxxxxxxxxxxxxxxxxxxxxxxxxx00000011000000010000000100000100 -
b10000000001011010000000100000011000000100xxxxxxxxxxxxxxxxxxxxxxxxxxxxxxxxxxxxxxxx00000011000000010000000100000100 8
b10000000001011010000000100000011000000100xxxxxxxxxxxxxxxxxxxxxxxxxxxxxxxxxxxxxxxx00000011000000010000000100000100 V
#10720
04
#10760
14
#10800
04
#10840
14
#10880
04
#10920
14
#10960
04
#11000
14
#11040
04
#11080
14
b100000000010110100000001000000110xxxxxxxxxxxxxxxxxxxxxxxxxxxxxxxxxxxxxxxxxxxxxxxx00000011000000010000000100000100 -
b100000000010110100000001000000110xxxxxxxxxxxxxxxxxxxxxxxxxxxxxxxxxxxxxxxxxxxxxxxx00000011000000010000000100000100 8
b100000000010110100000001000000110xxxxxxxxxxxxxxxxxxxxxxxxxxxxxxxxxxxxxxxxxxxxxxxx00000011000000010000000100000100 V
#11120
04
#11160
14
#11200
04
#11240
14
#11280
04
#11320
14
#11360
04
#11400
14
#11440
04
#11480
14
b1000000000101101000000010xxxxxxxxxxxxxxxxxxxxxxxxxxxxxxxxxxxxxxxxxxxxxxxxxxxxxxxx00000011000000010000000100000100 -
b1000000000101101000000010xxxxxxxxxxxxxxxxxxxxxxxxxxxxxxxxxxxxxxxxxxxxxxxxxxxxxxxx00000011000000010000000100000100 8
b1000000000101101000000010xxxxxxxxxxxxxxxxxxxxxxxxxxxxxxxxxxxxxxxxxxxxxxxxxxxxxxxx00000011000000010000000100000100 V
#11520
04
#11560
14
#11600
04
#11640
14
#11680
04
#11720
14
#11760
04
#11800
14
#11840
04
#11880
14
b10000000001011010xxxxxxxxxxxxxxxxxxxxxxxxxxxxxxxxxxxxxxxxxxxxxxxxxxxxxxxxxxxxxxxx00000011000000010000000100000100 -
b10000000001011010xxxxxxxxxxxxxxxxxxxxxxxxxxxxxxxxxxxxxxxxxxxxxxxxxxxxxxxxxxxxxxxx00000011000000010000000100000100 8
b10000000001011010xxxxxxxxxxxxxxxxxxxxxxxxxxxxxxxxxxxxxxxxxxxxxxxxxxxxxxxxxxxxxxxx00000011000000010000000100000100 V
#11920
04
#11960
14
#12000
04
#12040
14
#12080
04
#12120
14
#12160
04
#12200
14
#12240
04
#12280
14
b100000000xxxxxxxxxxxxxxxxxxxxxxxxxxxxxxxxxxxxxxxxxxxxxxxxxxxxxxxxxxxxxxxxxxxxxxxx00000011000000010000000100000100 -
b100000000xxxxxxxxxxxxxxxxxxxxxxxxxxxxxxxxxxxxxxxxxxxxxxxxxxxxxxxxxxxxxxxxxxxxxxxx00000011000000010000000100000100 8
b100000000xxxxxxxxxxxxxxxxxxxxxxxxxxxxxxxxxxxxxxxxxxxxxxxxxxxxxxxxxxxxxxxxxxxxxxxx00000011000000010000000100000100 V
#12320
04
#12360
14
#12400
04
#12440
14
#12480
04
#12520
14
#12560
04
#12600
14
#12640
04
#12680
14
b1xxxxxxxxxxxxxxxxxxxxxxxxxxxxxxxxxxxxxxxxxxxxxxxxxxxxxxxxxxxxxxxxxxxxxxxxxxxxxxxx00000011000000010000000100000100 -
b1xxxxxxxxxxxxxxxxxxxxxxxxxxxxxxxxxxxxxxxxxxxxxxxxxxxxxxxxxxxxxxxxxxxxxxxxxxxxxxxx00000011000000010000000100000100 8
b1xxxxxxxxxxxxxxxxxxxxxxxxxxxxxxxxxxxxxxxxxxxxxxxxxxxxxxxxxxxxxxxxxxxxxxxxxxxxxxxx00000011000000010000000100000100 V
#12720
04
#12760
14
#12800
04
#12840
14
#12880
04
#12920
14
#12960
04
#13000
14
#13040
04
