Part 3 NEw/build/cpu_wavedata.vcd
$date
	Mon Jun 26 23:09:51 2023
$end
$version
	Icarus Verilog
$end
$timescale
	100ps
$end
$scope module cpu_tb $end
$var wire 32 ! PC [31:0] $end
$var wire 1 " INSTR_BUSYWAIT $end
$var wire 32 # INSTRUCTION [31:0] $end
$var wire 1 $ IM_READ $end
$var wire 128 % IM_INSTR [127:0] $end
$var wire 1 & IM_BUSYWAIT $end
$var wire 6 ' IM_ADDRESS [5:0] $end
$var wire 32 ( DM_WRITEDATA [31:0] $end
$var wire 1 ) DM_WRITE $end
$var wire 32 * DM_READDATA [31:0] $end
$var wire 1 + DM_READ $end
$var wire 1 , DM_BUSYWAIT $end
$var wire 6 - DM_ADDRESS [5:0] $end
$var wire 8 . CPU_WRITEDATA [7:0] $end
$var wire 1 / CPU_WRITE $end
$var wire 8 0 CPU_READDATA [7:0] $end
$var wire 1 1 CPU_READ $end
$var wire 1 2 CPU_BUSYWAIT $end
$var wire 8 3 CPU_ADDRESS [7:0] $end
$var reg 1 4 CLK $end
$var reg 1 5 RESET $end
$scope module my_datacache $end
$var wire 32 6 cache_block [31:0] $end
$var wire 1 4 clock $end
$var wire 1 7 dirty $end
$var wire 1 8 hit $end
$var wire 1 5 reset $end
$var wire 1 9 valid $end
$var wire 1 / write $end
$var wire 1 : tagMatch $end
$var wire 3 ; tag [2:0] $end
$var wire 1 1 read $end
$var wire 2 < offset [1:0] $end
$var wire 32 = mem_readdata [31:0] $end
$var wire 1 , mem_busywait $end
$var wire 3 > index [2:0] $end
$var wire 8 ? cpu_writeData [7:0] $end
$var wire 3 @ cache_tag [2:0] $end
$var wire 8 A address [7:0] $end
$var reg 1 2 busywait $end
$var reg 1 B cacheWrite $end
$var reg 8 C cpu_readData [7:0] $end
$var reg 6 D mem_address [5:0] $end
$var reg 1 + mem_read $end
$var reg 1 ) mem_write $end
$var reg 32 E mem_writedata [31:0] $end
$var reg 3 F next_state [2:0] $end
$var reg 3 G state [2:0] $end
$var integer 32 H i [31:0] $end
$upscope $end
$scope module my_datamem $end
$var wire 6 I address [5:0] $end
$var wire 1 4 clock $end
$var wire 1 + read $end
$var wire 1 5 reset $end
$var wire 1 ) write $end
$var wire 32 J writedata [31:0] $end
$var reg 1 , busywait $end
$var reg 1 K readaccess $end
$var reg 32 L readdata [31:0] $end
$var reg 1 M writeaccess $end
$var integer 32 N i [31:0] $end
$upscope $end
$scope module my_icache $end
$var wire 10 O address [9:0] $end
$var wire 1 4 clock $end
$var wire 1 P hit $end
$var wire 128 Q instr_block [127:0] $end
$var wire 1 5 reset $end
$var wire 1 R valid $end
$var wire 1 S tagMatch $end
$var wire 3 T tag [2:0] $end
$var wire 32 U readinst [31:0] $end
$var wire 2 V offset [1:0] $end
$var wire 128 W mem_inst [127:0] $end
$var wire 1 & mem_busywait $end
$var wire 3 X index [2:0] $end
$var wire 3 Y cache_tag [2:0] $end
$var reg 1 " busywait $end
$var reg 32 Z loaded_instr [31:0] $end
$var reg 6 [ mem_address [5:0] $end
$var reg 1 $ mem_read $end
$var reg 3 \ next_state [2:0] $end
$var reg 3 ] state [2:0] $end
$var integer 32 ^ i [31:0] $end
$upscope $end
$scope module my_imemory $end
$var wire 6 _ address [5:0] $end
$var wire 1 4 clock $end
$var wire 1 $ read $end
$var reg 1 & busywait $end
$var reg 1 ` readaccess $end
$var reg 128 a readinst [127:0] $end
$upscope $end
$scope module mycpu $end
$var wire 8 b ADDRESS [7:0] $end
$var wire 1 2 BUSYWAIT $end
$var wire 1 4 CLK $end
$var wire 32 c INSTRUCTION [31:0] $end
$var wire 1 " INSTR_BUSYWAIT $end
$var wire 8 d READDATA [7:0] $end
$var wire 1 5 RESET $end
$var wire 8 e WRITEDATA [7:0] $end
$var wire 8 f registerOp [7:0] $end
$var wire 32 g newPC [31:0] $end
$var wire 8 h negatedOp [7:0] $end
$var wire 1 i flowSelect $end
$var wire 1 j ZERO $end
$var wire 3 k WRITEREG [2:0] $end
$var wire 32 l TARGET [31:0] $end
$var wire 8 m REGOUT2 [7:0] $end
$var wire 8 n REGOUT1 [7:0] $end
$var wire 8 o REGIN [7:0] $end
$var wire 3 p READREG2 [2:0] $end
$var wire 3 q READREG1 [2:0] $end
$var wire 32 r PCplus4 [31:0] $end
$var wire 32 s PCout [31:0] $end
$var wire 8 t OPERAND2 [7:0] $end
$var wire 8 u OFFSET [7:0] $end
$var wire 8 v IMMEDIATE [7:0] $end
$var wire 8 w ALURESULT [7:0] $end
$var reg 3 x ALUOP [2:0] $end
$var reg 1 y BRANCH $end
$var reg 1 z JUMP $end
$var reg 8 { OPCODE [7:0] $end
$var reg 32 | PC [31:0] $end
$var reg 1 1 READ $end
$var reg 1 / WRITE $end
$var reg 1 } WRITEENABLE $end
$var reg 1 ~ dataSelect $end
$var reg 1 !" immSelect $end
$var reg 1 "" signSelect $end
$scope module busywaitMUX $end
$var wire 32 #" IN2 [31:0] $end
$var wire 1 $" SELECT $end
$var wire 32 %" IN1 [31:0] $end
$var reg 32 &" OUT [31:0] $end
$upscope $end
$scope module datamux $end
$var wire 8 '" IN2 [7:0] $end
$var wire 1 ~ SELECT $end
$var wire 8 (" IN1 [7:0] $end
$var reg 8 )" OUT [7:0] $end
$upscope $end
$scope module flowctrlmux $end
$var wire 1 i SELECT $end
$var wire 32 *" IN2 [31:0] $end
$var wire 32 +" IN1 [31:0] $end
$var reg 32 ," OUT [31:0] $end
$upscope $end
$scope module immediateMUX $end
$var wire 8 -" IN2 [7:0] $end
$var wire 1 !" SELECT $end
$var wire 8 ." IN1 [7:0] $end
$var reg 8 /" OUT [7:0] $end
$upscope $end
$scope module my_alu $end
$var wire 8 0" DATA2 [7:0] $end
$var wire 3 1" SELECT [2:0] $end
$var wire 1 j ZERO $end
$var wire 8 2" orOut [7:0] $end
$var wire 8 3" forwardOut [7:0] $end
$var wire 8 4" andOut [7:0] $end
$var wire 8 5" addOut [7:0] $end
$var wire 8 6" DATA1 [7:0] $end
$var reg 8 7" RESULT [7:0] $end
$scope module addUnit $end
$var wire 8 8" DATA2 [7:0] $end
$var wire 8 9" RESULT [7:0] $end
$var wire 8 :" DATA1 [7:0] $end
$upscope $end
$scope module andUnit $end
$var wire 8 ;" DATA2 [7:0] $end
$var wire 8 <" RESULT [7:0] $end
$var wire 8 =" DATA1 [7:0] $end
$upscope $end
$scope module forwardUnit $end
$var wire 8 >" DATA [7:0] $end
$var wire 8 ?" RESULT [7:0] $end
$upscope $end
$scope module orUnit $end
$var wire 8 @" DATA2 [7:0] $end
$var wire 8 A" RESULT [7:0] $end
$var wire 8 B" DATA1 [7:0] $end
$upscope $end
$upscope $end
$scope module my_flowControl $end
$var wire 1 y BRANCH $end
$var wire 1 z JUMP $end
$var wire 1 i OUT $end
$var wire 1 j ZERO $end
$upscope $end
$scope module my_jumpbranchAdder $end
$var wire 8 C" OFFSET [7:0] $end
$var wire 22 D" signBits [21:0] $end
$var wire 32 E" TARGET [31:0] $end
$var wire 32 F" PC [31:0] $end
$upscope $end
$scope module my_pcAdder $end
$var wire 32 G" PC [31:0] $end
$var wire 32 H" PCplus4 [31:0] $end
$upscope $end
$scope module my_reg $end
$var wire 1 4 CLK $end
$var wire 8 I" IN [7:0] $end
$var wire 3 J" INADDRESS [2:0] $end
$var wire 8 K" OUT1 [7:0] $end
$var wire 3 L" OUT1ADDRESS [2:0] $end
$var wire 8 M" OUT2 [7:0] $end
$var wire 3 N" OUT2ADDRESS [2:0] $end
$var wire 1 5 RESET $end
$var wire 1 } WRITE $end
$var integer 32 O" i [31:0] $end
$upscope $end
$scope module my_twosComp $end
$var wire 8 P" IN [7:0] $end
$var wire 8 Q" OUT [7:0] $end
$upscope $end
$scope module negationMUX $end
$var wire 8 R" IN1 [7:0] $end
$var wire 8 S" IN2 [7:0] $end
$var wire 1 "" SELECT $end
$var reg 8 T" OUT [7:0] $end
$upscope $end
$upscope $end
$upscope $end
$enddefinitions $end
#0
$dumpvars
bx T"
bx S"
bx R"
bx Q"
bx P"
bx O"
bx N"
bx M"
bx L"
bx K"
bx J"
bx I"
bx H"
bx G"
bx F"
bx E"
bx D"
bx C"
bx B"
bx A"
bx @"
bx ?"
bx >"
bx ="
bx <"
bx ;"
bx :"
bx 9"
bx 8"
bx 7"
bx 6"
bx 5"
bx 4"
bx 3"
bx 2"
bx 1"
bx 0"
bx /"
bx ."
bx -"
bx ,"
bx +"
bx *"
bx )"
bx ("
bx '"
bx &"
bx %"
x$"
bx #"
x""
x!"
x~
x}
bx |
bx {
xz
xy
bx x
bx w
bx v
bx u
bx t
bx s
bx r
bx q
bx p
bx o
bx n
bx m
bx l
bx k
xj
xi
bx h
bx g
bx f
bx e
bx d
bx c
bx b
bx a
0`
bx _
b1000 ^
b0 ]
b0 \
bx [
bx Z
bx Y
bx X
bx W
bx V
bx U
bx T
xS
xR
bx Q
xP
bx O
b100000000 N
0M
bx L
0K
b0xxxxxxxx J
bx I
b1000 H
b0 G
b0 F
b0xxxxxxxx E
bx D
bx C
xB
bx A
bx @
bx ?
bx >
bx =
bx <
bx ;
x:
x9
x8
x7
bx 6
15
04
bx 3
x2
x1
bx 0
x/
bx .
bx -
0,
0+
bx *
0)
b0xxxxxxxx (
bx '
0&
bx %
0$
bx #
x"
bx !
$end
#10
b0x Y
b0x @
#40
b1000 ^
b1000 H
14
#50
b0 g
b0 &"
1$"
b0 V
b0 X
b0 T
1"
b0 O
b1000 O"
b0 !
b0 |
b0 #"
b0 G"
05
#60
b1 \
0P
b100 s
b100 %"
b100 ,"
0R
b100 r
b100 +"
b100 F"
b100 H"
#80
04
#120
1`
1&
b0 '
b0 [
b0 _
1$
b1 \
b1 ]
14
#160
04
#200
14
#240
04
#280
14
#320
04
#360
14
#400
04
#440
14
#480
04
#520
14
#560
04
#600
14
bx00011001 %
bx00011001 W
bx00011001 a
#640
04
#680
14
#720
04
#760
14
#800
04
#840
14
#880
04
#920
14
#960
04
#1000
14
bx0000000000011001 %
bx0000000000011001 W
bx0000000000011001 a
#1040
04
#1080
14
#1120
04
#1160
14
#1200
04
#1240
14
#1280
04
#1320
14
#1360
04
#1400
14
bx000001000000000000011001 %
bx000001000000000000011001 W
bx000001000000000000011001 a
#1440
04
#1480
14
#1520
04
#1560
14
#1600
04
#1640
14
#1680
04
#1720
14
#1760
04
#1800
14
bx00000000000001000000000000011001 %
bx00000000000001000000000000011001 W
bx00000000000001000000000000011001 a
#1840
04
#1880
14
#1920
04
#1960
14
#2000
04
#2040
14
#2080
04
#2120
14
#2160
04
#2200
14
bx0010001100000000000001000000000000011001 %
bx0010001100000000000001000000000000011001 W
bx0010001100000000000001000000000000011001 a
#2240
04
#2280
14
#2320
04
#2360
14
#2400
04
#2440
14
#2480
04
#2520
14
#2560
04
#2600
14
bx000000000010001100000000000001000000000000011001 %
bx000000000010001100000000000001000000000000011001 W
bx000000000010001100000000000001000000000000011001 a
#2640
04
#2680
14
#2720
04
#2760
14
#2800
04
#2840
14
#2880
04
#2920
14
#2960
04
#3000
14
bx00000101000000000010001100000000000001000000000000011001 %
bx00000101000000000010001100000000000001000000000000011001 W
bx00000101000000000010001100000000000001000000000000011001 a
#3040
04
#3080
14
#3120
04
#3160
14
#3200
04
#3240
14
#3280
04
#3320
14
#3360
04
#3400
14
bx0000000000000101000000000010001100000000000001000000000000011001 %
bx0000000000000101000000000010001100000000000001000000000000011001 W
bx0000000000000101000000000010001100000000000001000000000000011001 a
#3440
04
#3480
14
#3520
04
#3560
14
#3600
04
#3640
14
#3680
04
#3720
14
#3760
04
#3800
14
bx000001010000000000000101000000000010001100000000000001000000000000011001 %
bx000001010000000000000101000000000010001100000000000001000000000000011001 W
bx000001010000000000000101000000000010001100000000000001000000000000011001 a
#3840
04
#3880
14
#3920
04
#3960
14
#4000
04
#4040
14
#4080
04
#4120
14
#4160
04
#4200
14
bx00000100000001010000000000000101000000000010001100000000000001000000000000011001 %
bx00000100000001010000000000000101000000000010001100000000000001000000000000011001 W
bx00000100000001010000000000000101000000000010001100000000000001000000000000011001 a
#4240
04
#4280
14
#4320
04
#4360
14
#4400
04
#4440
14
#4480
04
#4520
14
#4560
04
#4600
14
bx0000011000000100000001010000000000000101000000000010001100000000000001000000000000011001 %
bx0000011000000100000001010000000000000101000000000010001100000000000001000000000000011001 W
bx0000011000000100000001010000000000000101000000000010001100000000000001000000000000011001 a
#4640
04
#4680
14
#4720
04
#4760
14
#4800
04
#4840
14
#4880
04
#4920
14
#4960
04
#5000
14
bx000000100000011000000100000001010000000000000101000000000010001100000000000001000000000000011001 %
bx000000100000011000000100000001010000000000000101000000000010001100000000000001000000000000011001 W
bx000000100000011000000100000001010000000000000101000000000010001100000000000001000000000000011001 a
#5040
04
#5080
14
#5120
04
#5160
14
#5200
04
#5240
14
#5280
04
#5320
14
#5360
04
#5400
14
bx01011010000000100000011000000100000001010000000000000101000000000010001100000000000001000000000000011001 %
bx01011010000000100000011000000100000001010000000000000101000000000010001100000000000001000000000000011001 W
bx01011010000000100000011000000100000001010000000000000101000000000010001100000000000001000000000000011001 a
#5440
04
#5480
14
#5520
04
#5560
14
#5600
04
#5640
14
#5680
04
#5720
14
#5760
04
#5800
14
bx0000000001011010000000100000011000000100000001010000000000000101000000000010001100000000000001000000000000011001 %
bx0000000001011010000000100000011000000100000001010000000000000101000000000010001100000000000001000000000000011001 W
bx0000000001011010000000100000011000000100000001010000000000000101000000000010001100000000000001000000000000011001 a
#5840
04
#5880
14
#5920
04
#5960
14
#6000
04
#6040
14
#6080
04
#6120
14
#6160
04
#6200
14
bx000000010000000001011010000000100000011000000100000001010000000000000101000000000010001100000000000001000000000000011001 %
bx000000010000000001011010000000100000011000000100000001010000000000000101000000000010001100000000000001000000000000011001 W
bx000000010000000001011010000000100000011000000100000001010000000000000101000000000010001100000000000001000000000000011001 a
#6240
04
#6280
14
#6320
04
#6360
14
#6400
04
#6440
14
#6480
04
#6520
14
#6560
04
#6600
b0 ]
b1 \
14
0`
0&
b10000000001011010000000100000011000000100000001010000000000000101000000000010001100000000000001000000000000011001 %
b10000000001011010000000100000011000000100000001010000000000000101000000000010001100000000000001000000000000011001 W
b10000000001011010000000100000011000000100000001010000000000000101000000000010001100000000000001000000000000011001 a
#6610
bx '
bx [
bx _
0$
#6620
b0 \
xP
b0 Y
1R
b10000000001011010000000100000011000000100000001010000000000000101000000000010001100000000000001000000000000011001 Q
#6629
1P
1S
#6630
b0 q
b0 L"
b1 p
b1 N"
b100 k
b100 J"
b0 D"
b11001 v
b11001 -"
b100 u
b100 C"
b1000000000000011001 #
b1000000000000011001 U
b1000000000000011001 c
b1000000000000011001 Z
#6640
b100 g
b100 &"
0i
0$"
02
b11001 t
b11001 /"
b11001 0"
b11001 8"
b11001 ;"
b11001 >"
b11001 @"
0"
0~
0/
01
1}
0y
0z
0""
1!"
b0 x
b0 1"
b0 {
04
#6650
0j
b0 ;
b110 >
b1 <
b11001 o
b11001 )"
b11001 I"
b11001 3
b11001 A
b11001 b
b11001 w
b11001 ("
b11001 7"
b0 f
b0 ."
b0 T"
b0xx00x 4"
b0xx00x <"
bx11xx1 2"
bx11xx1 A"
b11001 3"
b11001 ?"
b0 .
b0 ?
b0 e
b0 n
b0 6"
b0 :"
b0 ="
b0 B"
b0 K"
b0 m
b0 M"
b0 P"
b0 R"
b10100 l
b10100 *"
b10100 E"
#6660
08
09
07
b11001 2"
b11001 A"
b0 4"
b0 <"
b0 h
b0 Q"
b0 S"
#6670
b11001 5"
b11001 9"
#6680
14
#6690
1$"
b1 V
1"
b100 O
b100 !
b100 |
b100 #"
b100 G"
#6700
b100011 t
b100011 /"
b100011 0"
b100011 8"
b100011 ;"
b100011 >"
b100011 @"
b11 p
b11 N"
b101 k
b101 J"
b100011 v
b100011 -"
b101 u
b101 C"
b1010000000000100011 #
b1010000000000100011 U
b1010000000000100011 c
b1000 s
b1000 %"
b1000 ,"
b1010000000000100011 Z
b1000 r
b1000 +"
b1000 F"
b1000 H"
#6710
b1 ;
b0 >
b11 <
b100011 o
b100011 )"
b100011 I"
b100011 3
b100011 A
b100011 b
b100011 w
b100011 ("
b100011 7"
b100011 2"
b100011 A"
b100011 3"
b100011 ?"
#6720
b1000 g
b1000 &"
0$"
0"
b100011 5"
b100011 9"
b11100 l
b11100 *"
b11100 E"
04
#6760
14
#6770
1$"
b10 V
1"
b1000 O
b1000 !
b1000 |
b1000 #"
b1000 G"
#6780
b100 q
b100 L"
b101 t
b101 /"
b101 0"
b101 8"
b101 ;"
b101 >"
b101 @"
b101 p
b101 N"
b110 k
b110 J"
b101 v
b101 -"
b110 u
b110 C"
b10000001100000010000000101 #
b10000001100000010000000101 U
b10000001100000010000000101 c
b1100 s
b1100 %"
b1100 ,"
b10000001100000010000000101 Z
b1100 r
b1100 +"
b1100 F"
b1100 H"
#6790
b0 t
b0 /"
b0 0"
b0 8"
b0 ;"
b0 >"
b0 @"
b101 2"
b101 A"
b101 3"
b101 ?"
0!"
b1 x
b1 1"
b10 {
#6800
b1100 g
b1100 &"
b100011 t
b100011 /"
b100011 0"
b100011 8"
b100011 ;"
b100011 >"
b100011 @"
0$"
b100011 f
b100011 ."
b100011 T"
0"
b0 2"
b0 A"
b0 3"
b0 ?"
b11001 .
b11001 ?
b11001 e
b11001 n
b11001 6"
b11001 :"
b11001 ="
b11001 B"
b11001 K"
b100011 m
b100011 M"
b100011 P"
b100011 R"
b100100 l
b100100 *"
b100100 E"
04
#6810
b1 4"
b1 <"
b100011 3"
b100011 ?"
b111011 2"
b111011 A"
b11011101 h
b11011101 Q"
b11011101 S"
#6820
b111 >
b0 <
b111100 o
b111100 )"
b111100 I"
b111100 3
b111100 A
b111100 b
b111100 w
b111100 ("
b111100 7"
b111100 5"
b111100 9"
#6840
14
#6850
1$"
b11 V
1"
b1100 O
b1100 !
b1100 |
b1100 #"
b1100 G"
#6860
b0 q
b0 L"
b10 p
b10 N"
b1 k
b1 J"
b1011010 v
b1011010 -"
b1 u
b1 C"
b10000000001011010 #
b10000000001011010 U
b10000000001011010 c
b10000 s
b10000 %"
b10000 ,"
b10000000001011010 Z
b10000 r
b10000 +"
b10000 F"
b10000 H"
#6870
b0 >
b11 <
b100011 o
b100011 )"
b100011 I"
b1011010 t
b1011010 /"
b1011010 0"
b1011010 8"
b1011010 ;"
b1011010 >"
b1011010 @"
b100011 3
b100011 A
b100011 b
b100011 w
b100011 ("
b100011 7"
1!"
b0 x
b0 1"
b0 {
#6880
b10000 g
b10000 &"
b10 ;
b110 >
b10 <
b1011010 o
b1011010 )"
b1011010 I"
0$"
b1011010 3
b1011010 A
b1011010 b
b1011010 w
b1011010 ("
b1011010 7"
b0 f
b0 ."
b0 T"
0"
b11000 4"
b11000 <"
b1011011 2"
b1011011 A"
b1011010 3"
b1011010 ?"
b0 .
b0 ?
b0 e
b0 n
b0 6"
b0 :"
b0 ="
b0 B"
b0 K"
b0 m
b0 M"
b0 P"
b0 R"
b10100 l
b10100 *"
b10100 E"
04
#6889
0:
#6890
b1011010 2"
b1011010 A"
b0 4"
b0 <"
b0 h
b0 Q"
b0 S"
#6900
b1011010 5"
b1011010 9"
#6920
14
#6930
1$"
b0 V
b1 X
1"
b10000 O
b10000 !
b10000 |
b10000 #"
b10000 G"
#6940
bx q
bx L"
bx t
bx /"
bx 0"
bx 8"
bx ;"
bx >"
bx @"
bx p
bx N"
bx k
bx J"
bx D"
bx v
bx -"
bx u
bx C"
b1 \
bx #
bx U
bx c
0P
b10100 s
b10100 %"
b10100 ,"
b1000000000000011001 Z
bx Q
b0x Y
0R
b10100 r
b10100 +"
b10100 F"
b10100 H"
#6949
xS
#6950
xj
bx ;
bx >
bx <
bx o
bx )"
bx I"
bx 3
bx A
bx b
bx w
bx ("
bx 7"
bx 2"
bx A"
bx 3"
bx ?"
bx {
#6959
x:
#6960
x8
bx f
bx ."
bx T"
x9
x7
bx .
bx ?
bx e
bx n
bx 6"
bx :"
bx ="
bx B"
bx K"
bx 5"
bx 9"
bx m
bx M"
bx P"
bx R"
bx l
bx *"
bx E"
04
#6970
bx 4"
bx <"
bx h
bx Q"
bx S"
#7000
1`
1&
b1 '
b1 [
b1 _
1$
b1 \
b1 ]
14
#7040
04
#7080
14
#7120
04
#7160
14
#7200
04
#7240
14
#7280
04
#7320
14
#7360
04
#7400
14
#7440
04
#7480
14
b10000000001011010000000100000011000000100000001010000000000000101000000000010001100000000000001000000000000000100 %
b10000000001011010000000100000011000000100000001010000000000000101000000000010001100000000000001000000000000000100 W
b10000000001011010000000100000011000000100000001010000000000000101000000000010001100000000000001000000000000000100 a
#7520
04
#7560
14
#7600
04
#7640
14
#7680
04
#7720
14
#7760
04
#7800
14
#7840
04
#7880
14
b10000000001011010000000100000011000000100000001010000000000000101000000000010001100000000000001000000000100000100 %
b10000000001011010000000100000011000000100000001010000000000000101000000000010001100000000000001000000000100000100 W
b10000000001011010000000100000011000000100000001010000000000000101000000000010001100000000000001000000000100000100 a
#7920
04
#7960
14
#8000
04
#8040
14
#8080
04
#8120
14
#8160
04
#8200
14
#8240
04
#8280
14
b10000000001011010000000100000011000000100000001010000000000000101000000000010001100000000000000010000000100000100 %
b10000000001011010000000100000011000000100000001010000000000000101000000000010001100000000000000010000000100000100 W
b10000000001011010000000100000011000000100000001010000000000000101000000000010001100000000000000010000000100000100 a
#8320
04
#8360
14
#8400
04
#8440
14
#8480
04
#8520
14
#8560
04
#8600
14
#8640
04
#8680
14
b10000000001011010000000100000011000000100000001010000000000000101000000000010001100000011000000010000000100000100 %
b10000000001011010000000100000011000000100000001010000000000000101000000000010001100000011000000010000000100000100 W
b10000000001011010000000100000011000000100000001010000000000000101000000000010001100000011000000010000000100000100 a
#8720
04
#8760
14
#8800
04
#8840
14
#8880
04
#8920
14
#8960
04
#9000
14
#9040
04
#9080
14
b1000000000101101000000010000001100000010000000101000000000000010100000000xxxxxxxx00000011000000010000000100000100 %
b1000000000101101000000010000001100000010000000101000000000000010100000000xxxxxxxx00000011000000010000000100000100 W
b1000000000101101000000010000001100000010000000101000000000000010100000000xxxxxxxx00000011000000010000000100000100 a
#9120
04
#9160
14
#9200
04
#9240
14
#9280
04
#9320
14
#9360
04
#9400
14
#9440
04
#9480
14
b10000000001011010000000100000011000000100000001010000000000000101xxxxxxxxxxxxxxxx00000011000000010000000100000100 %
b10000000001011010000000100000011000000100000001010000000000000101xxxxxxxxxxxxxxxx00000011000000010000000100000100 W
b10000000001011010000000100000011000000100000001010000000000000101xxxxxxxxxxxxxxxx00000011000000010000000100000100 a
#9520
04
#9560
14
#9600
04
#9640
14
#9680
04
#9720
14
#9760
04
#9800
14
#9840
04
#9880
14
b100000000010110100000001000000110000001000000010100000000xxxxxxxxxxxxxxxxxxxxxxxx00000011000000010000000100000100 %
b100000000010110100000001000000110000001000000010100000000xxxxxxxxxxxxxxxxxxxxxxxx00000011000000010000000100000100 W
b100000000010110100000001000000110000001000000010100000000xxxxxxxxxxxxxxxxxxxxxxxx00000011000000010000000100000100 a
#9920
04
#9960
14
#10000
04
#10040
14
#10080
04
#10120
14
#10160
04
#10200
14
#10240
04
#10280
14
b1000000000101101000000010000001100000010000000101xxxxxxxxxxxxxxxxxxxxxxxxxxxxxxxx00000011000000010000000100000100 %
b1000000000101101000000010000001100000010000000101xxxxxxxxxxxxxxxxxxxxxxxxxxxxxxxx00000011000000010000000100000100 W
b1000000000101101000000010000001100000010000000101xxxxxxxxxxxxxxxxxxxxxxxxxxxxxxxx00000011000000010000000100000100 a
#10320
04
#10360
14
#10400
04
#10440
14
#10480
04
#10520
14
#10560
04
#10600
14
#10640
04
#10680
14
b10000000001011010000000100000011000000100xxxxxxxxxxxxxxxxxxxxxxxxxxxxxxxxxxxxxxxx00000011000000010000000100000100 %
b10000000001011010000000100000011000000100xxxxxxxxxxxxxxxxxxxxxxxxxxxxxxxxxxxxxxxx00000011000000010000000100000100 W
b10000000001011010000000100000011000000100xxxxxxxxxxxxxxxxxxxxxxxxxxxxxxxxxxxxxxxx00000011000000010000000100000100 a
#10720
04
#10760
14
#10800
04
#10840
14
#10880
04
#10920
14
#10960
04
#11000
14
#11040
04
#11080
14
b100000000010110100000001000000110xxxxxxxxxxxxxxxxxxxxxxxxxxxxxxxxxxxxxxxxxxxxxxxx00000011000000010000000100000100 %
b100000000010110100000001000000110xxxxxxxxxxxxxxxxxxxxxxxxxxxxxxxxxxxxxxxxxxxxxxxx00000011000000010000000100000100 W
b100000000010110100000001000000110xxxxxxxxxxxxxxxxxxxxxxxxxxxxxxxxxxxxxxxxxxxxxxxx00000011000000010000000100000100 a
#11120
04
#11160
14
#11200
04
#11240
14
#11280
04
#11320
14
#11360
04
#11400
14
#11440
04
#11480
14
b1000000000101101000000010xxxxxxxxxxxxxxxxxxxxxxxxxxxxxxxxxxxxxxxxxxxxxxxxxxxxxxxx00000011000000010000000100000100 %
b1000000000101101000000010xxxxxxxxxxxxxxxxxxxxxxxxxxxxxxxxxxxxxxxxxxxxxxxxxxxxxxxx00000011000000010000000100000100 W
b1000000000101101000000010xxxxxxxxxxxxxxxxxxxxxxxxxxxxxxxxxxxxxxxxxxxxxxxxxxxxxxxx00000011000000010000000100000100 a
#11520
04
#11560
14
#11600
04
#11640
14
#11680
04
#11720
14
#11760
04
#11800
14
#11840
04
#11880
14
b10000000001011010xxxxxxxxxxxxxxxxxxxxxxxxxxxxxxxxxxxxxxxxxxxxxxxxxxxxxxxxxxxxxxxx00000011000000010000000100000100 %
b10000000001011010xxxxxxxxxxxxxxxxxxxxxxxxxxxxxxxxxxxxxxxxxxxxxxxxxxxxxxxxxxxxxxxx00000011000000010000000100000100 W
b10000000001011010xxxxxxxxxxxxxxxxxxxxxxxxxxxxxxxxxxxxxxxxxxxxxxxxxxxxxxxxxxxxxxxx00000011000000010000000100000100 a
#11920
04
#11960
14
#12000
04
#12040
14
#12080
04
#12120
14
#12160
04
#12200
14
#12240
04
#12280
14
b100000000xxxxxxxxxxxxxxxxxxxxxxxxxxxxxxxxxxxxxxxxxxxxxxxxxxxxxxxxxxxxxxxxxxxxxxxx00000011000000010000000100000100 %
b100000000xxxxxxxxxxxxxxxxxxxxxxxxxxxxxxxxxxxxxxxxxxxxxxxxxxxxxxxxxxxxxxxxxxxxxxxx00000011000000010000000100000100 W
b100000000xxxxxxxxxxxxxxxxxxxxxxxxxxxxxxxxxxxxxxxxxxxxxxxxxxxxxxxxxxxxxxxxxxxxxxxx00000011000000010000000100000100 a
#12320
04
#12360
14
#12400
04
#12440
14
#12480
04
#12520
14
#12560
04
#12600
14
#12640
04
#12680
14
b1xxxxxxxxxxxxxxxxxxxxxxxxxxxxxxxxxxxxxxxxxxxxxxxxxxxxxxxxxxxxxxxxxxxxxxxxxxxxxxxx00000011000000010000000100000100 %
b1xxxxxxxxxxxxxxxxxxxxxxxxxxxxxxxxxxxxxxxxxxxxxxxxxxxxxxxxxxxxxxxxxxxxxxxxxxxxxxxx00000011000000010000000100000100 W
b1xxxxxxxxxxxxxxxxxxxxxxxxxxxxxxxxxxxxxxxxxxxxxxxxxxxxxxxxxxxxxxxxxxxxxxxxxxxxxxxx00000011000000010000000100000100 a
#12720
04
#12760
14
#12800
04
#12840
14
#12880
04
#12920
14
#12960
04
#13000
14
#13040
04
#13080
14
b0xxxxxxxxxxxxxxxxxxxxxxxxxxxxxxxxxxxxxxxxxxxxxxxxxxxxxxxxxxxxxxxxxxxxxxxxxxxxxxxxxxxxxxxx00000011000000010000000100000100 %
b0xxxxxxxxxxxxxxxxxxxxxxxxxxxxxxxxxxxxxxxxxxxxxxxxxxxxxxxxxxxxxxxxxxxxxxxxxxxxxxxxxxxxxxxx00000011000000010000000100000100 W
b0xxxxxxxxxxxxxxxxxxxxxxxxxxxxxxxxxxxxxxxxxxxxxxxxxxxxxxxxxxxxxxxxxxxxxxxxxxxxxxxxxxxxxxxx00000011000000010000000100000100 a
#13120
04
#13160
14
#13200
04
#13240
14
#13280
04
#13320
14
#13360
04
#13400
14
#13440
04
#13480
b0 ]
b1 \
14
0`
0&
bx00000011000000010000000100000100 %
bx00000011000000010000000100000100 W
bx00000011000000010000000100000100 a
#13490
bx '
bx [
bx _
0$
#13500
b0 Y
bx00000011000000010000000100000100 Q
#13509
1S
#13510
b11000000010000000100000100 Z
#13520
04
#13560
1`
1&
b1 '
b1 [
b1 _
1$
b1 \
b1 ]
14
