Part 3/build/cpu_wavedata.vcd
$date
	Mon Jun 26 20:59:05 2023
$end
$version
	Icarus Verilog
$end
$timescale
	100ps
$end
$scope module cpu_tb $end
$var wire 32 ! PC [31:0] $end
$var wire 1 " INSTR_BUSYWAIT $end
$var wire 32 # INSTRUCTION [31:0] $end
$var wire 1 $ IM_READ $end
$var wire 128 % IM_INSTR [127:0] $end
$var wire 1 & IM_BUSYWAIT $end
$var wire 6 ' IM_ADDRESS [5:0] $end
$var wire 32 ( DM_WRITEDATA [31:0] $end
$var wire 1 ) DM_WRITE $end
$var wire 32 * DM_READDATA [31:0] $end
$var wire 1 + DM_READ $end
$var wire 1 , DM_BUSYWAIT $end
$var wire 6 - DM_ADDRESS [5:0] $end
$var wire 8 . CPU_WRITEDATA [7:0] $end
$var wire 1 / CPU_WRITE $end
$var wire 8 0 CPU_READDATA [7:0] $end
$var wire 1 1 CPU_READ $end
$var wire 1 2 CPU_BUSYWAIT $end
$var wire 8 3 CPU_ADDRESS [7:0] $end
$var reg 1 4 CLK $end
$var reg 1 5 RESET $end
$scope module my_datacache $end
$var wire 1 4 clk $end
$var wire 1 5 reset $end
$var wire 8 6 writedata [7:0] $end
$var wire 1 / write $end
$var wire 3 7 tag [2:0] $end
$var wire 1 1 read $end
$var wire 2 8 offset [1:0] $end
$var wire 32 9 mem_readdata [31:0] $end
$var wire 1 , mem_busywait $end
$var wire 3 : index [2:0] $end
$var wire 8 ; address [7:0] $end
$var reg 1 2 busywait $end
$var reg 1 < checkhit $end
$var reg 1 = dirty $end
$var reg 8 > dirtybits [7:0] $end
$var reg 1 ? hit $end
$var reg 6 @ mem_address [5:0] $end
$var reg 1 + mem_read $end
$var reg 1 ) mem_write $end
$var reg 32 A mem_writedata [31:0] $end
$var reg 3 B next_state [2:0] $end
$var reg 8 C readdata [7:0] $end
$var reg 1 D readfromcache $end
$var reg 3 E state [2:0] $end
$var reg 3 F tag_of_block [2:0] $end
$var reg 1 G update $end
$var reg 1 H valid $end
$var reg 8 I validbits [7:0] $end
$var reg 1 J writetocache $end
$upscope $end
$scope module my_datamem $end
$var wire 6 K address [5:0] $end
$var wire 1 4 clock $end
$var wire 1 + read $end
$var wire 1 5 reset $end
$var wire 1 ) write $end
$var wire 32 L writedata [31:0] $end
$var reg 1 , busywait $end
$var reg 1 M readaccess $end
$var reg 32 N readdata [31:0] $end
$var reg 1 O writeaccess $end
$var integer 32 P i [31:0] $end
$upscope $end
$scope module my_icache $end
$var wire 10 Q address [9:0] $end
$var wire 1 4 clock $end
$var wire 1 R hit $end
$var wire 128 S instr_block [127:0] $end
$var wire 1 5 reset $end
$var wire 1 T valid $end
$var wire 1 U tagMatch $end
$var wire 3 V tag [2:0] $end
$var wire 32 W readinst [31:0] $end
$var wire 2 X offset [1:0] $end
$var wire 128 Y mem_inst [127:0] $end
$var wire 1 & mem_busywait $end
$var wire 3 Z index [2:0] $end
$var wire 3 [ cache_tag [2:0] $end
$var reg 1 " busywait $end
$var reg 32 \ loaded_instr [31:0] $end
$var reg 6 ] mem_address [5:0] $end
$var reg 1 $ mem_read $end
$var reg 3 ^ next_state [2:0] $end
$var reg 3 _ state [2:0] $end
$var integer 32 ` i [31:0] $end
$upscope $end
$scope module my_imemory $end
$var wire 6 a address [5:0] $end
$var wire 1 4 clock $end
$var wire 1 $ read $end
$var reg 1 & busywait $end
$var reg 1 b readaccess $end
$var reg 128 c readinst [127:0] $end
$upscope $end
$scope module mycpu $end
$var wire 8 d ADDRESS [7:0] $end
$var wire 1 2 BUSYWAIT $end
$var wire 1 4 CLK $end
$var wire 32 e INSTRUCTION [31:0] $end
$var wire 1 " INSTR_BUSYWAIT $end
$var wire 8 f OFFSET [7:0] $end
$var wire 8 g READDATA [7:0] $end
$var wire 1 5 RESET $end
$var wire 8 h WRITEDATA [7:0] $end
$var wire 8 i in1_multi [7:0] $end
$var wire 8 j in2_multi [7:0] $end
$var wire 8 k registerOp [7:0] $end
$var wire 8 l out_multi [7:0] $end
$var wire 32 m offset_out [31:0] $end
$var wire 8 n negatedOp [7:0] $end
$var wire 1 o flow_out $end
$var wire 1 p ZERO $end
$var wire 3 q WRITEREG [2:0] $end
$var wire 4 r Shift [3:0] $end
$var wire 8 s REGOUT2 [7:0] $end
$var wire 8 t REGOUT1 [7:0] $end
$var wire 3 u READREG2 [2:0] $end
$var wire 3 v READREG1 [2:0] $end
$var wire 32 w PCreg [31:0] $end
$var wire 8 x OPERAND2 [7:0] $end
$var wire 32 y NewPC2 [31:0] $end
$var wire 32 z NewPC [31:0] $end
$var wire 8 { MUX5 [7:0] $end
$var wire 8 | IMMEDIATE [7:0] $end
$var wire 8 } ALURESULT [7:0] $end
$var reg 3 ~ ALUOP [2:0] $end
$var reg 8 !" OPCODE [7:0] $end
$var reg 32 "" PC [31:0] $end
$var reg 1 1 READ $end
$var reg 1 #" SEL_MUX4 $end
$var reg 1 $" Shift_Choice $end
$var reg 1 / WRITE $end
$var reg 1 %" WRITEENABLE $end
$var reg 2 &" bj [1:0] $end
$var reg 1 '" immSelect $end
$var reg 1 (" signSelect $end
$scope module MUX4 $end
$var wire 1 o SELECT $end
$var wire 32 )" IN2 [31:0] $end
$var wire 32 *" IN1 [31:0] $end
$var reg 32 +" OUT [31:0] $end
$upscope $end
$scope module alu1 $end
$var wire 1 $" CHOICE $end
$var wire 3 ," SELECT [2:0] $end
$var wire 4 -" SHIFT [3:0] $end
$var wire 1 p ZERO $end
$var wire 8 ." DATA2 [7:0] $end
$var wire 8 /" DATA1 [7:0] $end
$var wire 8 0" C7 [7:0] $end
$var wire 8 1" C6 [7:0] $end
$var wire 8 2" C5 [7:0] $end
$var wire 8 3" C4 [7:0] $end
$var wire 8 4" C3 [7:0] $end
$var wire 8 5" C2 [7:0] $end
$var wire 8 6" C1 [7:0] $end
$var wire 8 7" C0 [7:0] $end
$var reg 8 8" RESULT [7:0] $end
$scope module case0 $end
$var wire 8 9" RESULT [7:0] $end
$var wire 8 :" DATA2 [7:0] $end
$var wire 8 ;" DATA1 [7:0] $end
$upscope $end
$scope module case1 $end
$var wire 8 <" RESULT [7:0] $end
$var wire 8 =" DATA2 [7:0] $end
$var wire 8 >" DATA1 [7:0] $end
$upscope $end
$scope module case2 $end
$var wire 8 ?" RESULT [7:0] $end
$var wire 8 @" DATA2 [7:0] $end
$var wire 8 A" DATA1 [7:0] $end
$upscope $end
$scope module case3 $end
$var wire 8 B" RESULT [7:0] $end
$var wire 8 C" DATA2 [7:0] $end
$var wire 8 D" DATA1 [7:0] $end
$upscope $end
$scope module case4 $end
$var wire 8 E" New_Num [7:0] $end
$var wire 8 F" IN2 [7:0] $end
$var wire 8 G" IN1 [7:0] $end
$var reg 8 H" sum [7:0] $end
$upscope $end
$scope module case5 $end
$var wire 8 I" Out_num [7:0] $end
$var wire 4 J" SHIFT [3:0] $end
$var wire 8 K" Number [7:0] $end
$var reg 8 L" New_Num [7:0] $end
$upscope $end
$scope module case6 $end
$var wire 8 M" Out_num [7:0] $end
$var wire 4 N" SHIFT [3:0] $end
$var wire 8 O" Number [7:0] $end
$var reg 8 P" New_Num [7:0] $end
$upscope $end
$scope module case7 $end
$var wire 1 $" Chocie $end
$var wire 8 Q" Out_num [7:0] $end
$var wire 4 R" SHIFT [3:0] $end
$var wire 8 S" Number [7:0] $end
$var reg 8 T" New_Num [7:0] $end
$upscope $end
$upscope $end
$scope module busywaitMUX $end
$var wire 32 U" IN1 [31:0] $end
$var wire 32 V" IN2 [31:0] $end
$var wire 1 W" SELECT $end
$var reg 32 X" OUT [31:0] $end
$upscope $end
$scope module flow $end
$var wire 2 Y" branch_jump [1:0] $end
$var wire 1 o out $end
$var wire 1 p zero $end
$upscope $end
$scope module mult $end
$var wire 8 Z" IN1 [7:0] $end
$var wire 8 [" IN2 [7:0] $end
$var wire 8 \" New_Num [7:0] $end
$var reg 8 ]" sum [7:0] $end
$upscope $end
$scope module mux1 $end
$var wire 1 (" SELECT $end
$var wire 8 ^" IN2 [7:0] $end
$var wire 8 _" IN1 [7:0] $end
$var reg 8 `" OUT [7:0] $end
$upscope $end
$scope module mux2 $end
$var wire 8 a" IN1 [7:0] $end
$var wire 8 b" IN2 [7:0] $end
$var wire 1 '" SELECT $end
$var reg 8 c" OUT [7:0] $end
$upscope $end
$scope module mux4 $end
$var wire 8 d" IN1 [7:0] $end
$var wire 8 e" IN2 [7:0] $end
$var wire 1 #" SELECT $end
$var reg 8 f" OUT [7:0] $end
$upscope $end
$scope module my_pcAdder $end
$var wire 32 g" PC [31:0] $end
$var wire 32 h" PC_Next [31:0] $end
$upscope $end
$scope module reg_file1 $end
$var wire 1 4 CLK $end
$var wire 8 i" IN [7:0] $end
$var wire 3 j" INADDRESS [2:0] $end
$var wire 8 k" OUT1 [7:0] $end
$var wire 3 l" OUT1ADDRESS [2:0] $end
$var wire 8 m" OUT2 [7:0] $end
$var wire 3 n" OUT2ADDRESS [2:0] $end
$var wire 1 5 RESET $end
$var wire 1 %" WRITE $end
$var integer 32 o" i [31:0] $end
$upscope $end
$scope module target $end
$var wire 8 p" Offset [7:0] $end
$var wire 32 q" PC [31:0] $end
$var wire 22 r" signBits [21:0] $end
$var wire 32 s" Target [31:0] $end
$upscope $end
$scope module twocomp1 $end
$var wire 8 t" IN [7:0] $end
$var wire 8 u" OUT [7:0] $end
$upscope $end
$upscope $end
$upscope $end
$enddefinitions $end
#0
$dumpvars
bx u"
bx t"
bx s"
bz r"
bx q"
bz p"
bx o"
bx n"
bx m"
bx l"
bx k"
bx j"
bx i"
bx h"
bx g"
bx f"
bx e"
bx d"
bx c"
bx b"
bx a"
bx `"
bx _"
bx ^"
bx ]"
bx \"
bz ["
bz Z"
bx Y"
bx X"
xW"
bx V"
bx U"
bx T"
bx S"
bx R"
bx Q"
bx P"
bx O"
bx N"
bx M"
bx L"
bx K"
bx J"
bx I"
bx H"
bx G"
bx F"
bx E"
bx D"
bx C"
bx B"
bx A"
bx @"
bx ?"
bx >"
bx ="
bx <"
bx ;"
bx :"
bx 9"
bx 8"
bx 7"
bx 6"
bx 5"
bx 4"
bx 3"
bx 2"
bx 1"
bx 0"
bx /"
bx ."
bx -"
bx ,"
bx +"
bx *"
bx )"
x("
x'"
bx &"
x%"
0$"
0#"
bx ""
bx !"
bx ~
bx }
bx |
bx {
bx z
bx y
bx x
bx w
bx v
bx u
bx t
bx s
bx r
bx q
xp
xo
bx n
bx m
bx l
bx k
bz j
bz i
bx h
bx g
bz f
bx e
bx d
bx c
0b
bx a
b1000 `
b0 _
b0 ^
bx ]
bx \
bx [
bx Z
bx Y
bx X
bx W
bx V
xU
xT
bx S
xR
bx Q
b100000000 P
0O
bx N
0M
bx L
bx K
xJ
b0 I
xH
0G
bx F
b0 E
xD
bx C
b0 B
bx A
bx @
x?
b0 >
x=
x<
bx ;
bx :
bx 9
bx 8
bx 7
bx 6
15
04
bx 3
02
01
bx 0
0/
bx .
bx -
0,
0+
bx *
0)
bx (
bx '
0&
bx %
0$
bx #
x"
bx !
$end
#10
b0x [
#40
b1000 `
14
#50
b0 y
b0 X"
1W"
b0 X
b0 Z
b0 V
1"
b0 Q
b1000 o"
b0 !
b0 ""
b0 V"
b0 g"
05
#60
b1 ^
0R
b100 z
b100 +"
b100 U"
0T
b100 w
b100 *"
b100 h"
b100 q"
#80
04
#120
1b
1&
b0 '
b0 ]
b0 a
1$
b1 ^
b1 _
14
#130
b1 X
b100 y
b100 X"
b100 Q
b100 !
b100 ""
b100 V"
b100 g"
#140
b1000 z
b1000 +"
b1000 U"
b1000 w
b1000 *"
b1000 h"
b1000 q"
#160
04
#200
14
#210
b10 X
b1000 y
b1000 X"
b1000 Q
b1000 !
b1000 ""
b1000 V"
b1000 g"
#220
b1100 z
b1100 +"
b1100 U"
b1100 w
b1100 *"
b1100 h"
b1100 q"
#240
04
#280
14
#290
b11 X
b1100 y
b1100 X"
b1100 Q
b1100 !
b1100 ""
b1100 V"
b1100 g"
#300
b10000 z
b10000 +"
b10000 U"
b10000 w
b10000 *"
b10000 h"
b10000 q"
#320
04
#360
14
#370
b1 '
b1 ]
b1 a
b0 X
b1 Z
b10000 y
b10000 X"
b10000 Q
b10000 !
b10000 ""
b10000 V"
b10000 g"
#380
b10100 z
b10100 +"
b10100 U"
b10100 w
b10100 *"
b10100 h"
b10100 q"
#400
04
#440
14
#450
b1 X
b10100 y
b10100 X"
b10100 Q
b10100 !
b10100 ""
b10100 V"
b10100 g"
#460
b11000 z
b11000 +"
b11000 U"
b11000 w
b11000 *"
b11000 h"
b11000 q"
#480
04
#520
14
#530
b10 X
b11000 y
b11000 X"
b11000 Q
b11000 !
b11000 ""
b11000 V"
b11000 g"
#540
b11100 z
b11100 +"
b11100 U"
b11100 w
b11100 *"
b11100 h"
b11100 q"
#560
04
#600
14
bx00011001 %
bx00011001 Y
bx00011001 c
#610
b11 X
b11100 y
b11100 X"
b11100 Q
b11100 !
b11100 ""
b11100 V"
b11100 g"
#620
b100000 z
b100000 +"
b100000 U"
b100000 w
b100000 *"
b100000 h"
b100000 q"
#640
04
#680
14
#690
b10 '
b10 ]
b10 a
b0 X
b10 Z
b100000 y
b100000 X"
b100000 Q
b100000 !
b100000 ""
b100000 V"
b100000 g"
#700
b100100 z
b100100 +"
b100100 U"
b100100 w
b100100 *"
b100100 h"
b100100 q"
#720
04
#760
14
#770
b1 X
b100100 y
b100100 X"
b100100 Q
b100100 !
b100100 ""
b100100 V"
b100100 g"
#780
b101000 z
b101000 +"
b101000 U"
b101000 w
b101000 *"
b101000 h"
b101000 q"
#800
04
#840
14
#850
b10 X
b101000 y
b101000 X"
b101000 Q
b101000 !
b101000 ""
b101000 V"
b101000 g"
#860
b101100 z
b101100 +"
b101100 U"
b101100 w
b101100 *"
b101100 h"
b101100 q"
#880
04
#920
14
#930
b11 X
b101100 y
b101100 X"
b101100 Q
b101100 !
b101100 ""
b101100 V"
b101100 g"
#940
b110000 z
b110000 +"
b110000 U"
b110000 w
b110000 *"
b110000 h"
b110000 q"
#960
04
#1000
14
bx0000000100011001 %
bx0000000100011001 Y
bx0000000100011001 c
#1010
b11 '
b11 ]
b11 a
b0 X
b11 Z
b110000 y
b110000 X"
b110000 Q
b110000 !
b110000 ""
b110000 V"
b110000 g"
#1020
b110100 z
b110100 +"
b110100 U"
b110100 w
b110100 *"
b110100 h"
b110100 q"
#1040
04
#1080
14
#1090
b1 X
b110100 y
b110100 X"
b110100 Q
b110100 !
b110100 ""
b110100 V"
b110100 g"
#1100
b111000 z
b111000 +"
b111000 U"
b111000 w
b111000 *"
b111000 h"
b111000 q"
#1120
04
#1160
14
#1170
b10 X
b111000 y
b111000 X"
b111000 Q
b111000 !
b111000 ""
b111000 V"
b111000 g"
#1180
b111100 z
b111100 +"
b111100 U"
b111100 w
b111100 *"
b111100 h"
b111100 q"
#1200
04
#1240
14
#1250
b11 X
b111100 y
b111100 X"
b111100 Q
b111100 !
b111100 ""
b111100 V"
b111100 g"
#1260
b1000000 z
b1000000 +"
b1000000 U"
b1000000 w
b1000000 *"
b1000000 h"
b1000000 q"
#1280
04
#1320
14
#1330
b100 '
b100 ]
b100 a
b0 X
b100 Z
b1000000 y
b1000000 X"
b1000000 Q
b1000000 !
b1000000 ""
b1000000 V"
b1000000 g"
#1340
b1000100 z
b1000100 +"
b1000100 U"
b1000100 w
b1000100 *"
b1000100 h"
b1000100 q"
#1360
04
#1400
14
#1410
b1 X
b1000100 y
b1000100 X"
b1000100 Q
b1000100 !
b1000100 ""
b1000100 V"
b1000100 g"
#1420
b1001000 z
b1001000 +"
b1001000 U"
b1001000 w
b1001000 *"
b1001000 h"
b1001000 q"
#1440
04
#1480
14
#1490
b10 X
b1001000 y
b1001000 X"
b1001000 Q
b1001000 !
b1001000 ""
b1001000 V"
b1001000 g"
#1500
b1001100 z
b1001100 +"
b1001100 U"
b1001100 w
b1001100 *"
b1001100 h"
b1001100 q"
#1520
04
#1560
14
#1570
b11 X
b1001100 y
b1001100 X"
b1001100 Q
b1001100 !
b1001100 ""
b1001100 V"
b1001100 g"
#1580
b1010000 z
b1010000 +"
b1010000 U"
b1010000 w
b1010000 *"
b1010000 h"
b1010000 q"
#1600
04
#1640
14
#1650
b101 '
b101 ]
b101 a
b0 X
b101 Z
b1010000 y
b1010000 X"
b1010000 Q
b1010000 !
b1010000 ""
b1010000 V"
b1010000 g"
#1660
b1010100 z
b1010100 +"
b1010100 U"
b1010100 w
b1010100 *"
b1010100 h"
b1010100 q"
#1680
04
#1720
14
#1730
b1 X
b1010100 y
b1010100 X"
b1010100 Q
b1010100 !
b1010100 ""
b1010100 V"
b1010100 g"
#1740
b1011000 z
b1011000 +"
b1011000 U"
b1011000 w
b1011000 *"
b1011000 h"
b1011000 q"
#1760
04
#1800
14
#1810
b10 X
b1011000 y
b1011000 X"
b1011000 Q
b1011000 !
b1011000 ""
b1011000 V"
b1011000 g"
#1820
b1011100 z
b1011100 +"
b1011100 U"
b1011100 w
b1011100 *"
b1011100 h"
b1011100 q"
#1840
04
#1880
14
#1890
b11 X
b1011100 y
b1011100 X"
b1011100 Q
b1011100 !
b1011100 ""
b1011100 V"
b1011100 g"
#1900
b1100000 z
b1100000 +"
b1100000 U"
b1100000 w
b1100000 *"
b1100000 h"
b1100000 q"
#1920
04
#1960
14
#1970
b110 '
b110 ]
b110 a
b0 X
b110 Z
b1100000 y
b1100000 X"
b1100000 Q
b1100000 !
b1100000 ""
b1100000 V"
b1100000 g"
#1980
b1100100 z
b1100100 +"
b1100100 U"
b1100100 w
b1100100 *"
b1100100 h"
b1100100 q"
#2000
04
#2040
14
#2050
b1 X
b1100100 y
b1100100 X"
b1100100 Q
b1100100 !
b1100100 ""
b1100100 V"
b1100100 g"
#2060
b1101000 z
b1101000 +"
b1101000 U"
b1101000 w
b1101000 *"
b1101000 h"
b1101000 q"
#2080
04
#2120
14
#2130
b10 X
b1101000 y
b1101000 X"
b1101000 Q
b1101000 !
b1101000 ""
b1101000 V"
b1101000 g"
#2140
b1101100 z
b1101100 +"
b1101100 U"
b1101100 w
b1101100 *"
b1101100 h"
b1101100 q"
#2160
04
#2200
14
#2210
b11 X
b1101100 y
b1101100 X"
b1101100 Q
b1101100 !
b1101100 ""
b1101100 V"
b1101100 g"
#2220
b1110000 z
b1110000 +"
b1110000 U"
b1110000 w
b1110000 *"
b1110000 h"
b1110000 q"
#2240
04
#2280
14
#2290
b111 '
b111 ]
b111 a
b0 X
b111 Z
b1110000 y
b1110000 X"
b1110000 Q
b1110000 !
b1110000 ""
b1110000 V"
b1110000 g"
#2300
b1110100 z
b1110100 +"
b1110100 U"
b1110100 w
b1110100 *"
b1110100 h"
b1110100 q"
#2320
04
#2360
14
#2370
b1 X
b1110100 y
b1110100 X"
b1110100 Q
b1110100 !
b1110100 ""
b1110100 V"
b1110100 g"
#2380
b1111000 z
b1111000 +"
b1111000 U"
b1111000 w
b1111000 *"
b1111000 h"
b1111000 q"
#2400
04
#2440
14
#2450
b10 X
b1111000 y
b1111000 X"
b1111000 Q
b1111000 !
b1111000 ""
b1111000 V"
b1111000 g"
#2460
b1111100 z
b1111100 +"
b1111100 U"
b1111100 w
b1111100 *"
b1111100 h"
b1111100 q"
#2480
04
#2520
14
#2530
b11 X
b1111100 y
b1111100 X"
b1111100 Q
b1111100 !
b1111100 ""
b1111100 V"
b1111100 g"
#2540
b10000000 z
b10000000 +"
b10000000 U"
b10000000 w
b10000000 *"
b10000000 h"
b10000000 q"
#2560
04
#2600
14
#2610
b1000 '
b1000 ]
b1000 a
b0 X
b0 Z
b1 V
b10000000 y
b10000000 X"
b10000000 Q
b10000000 !
b10000000 ""
b10000000 V"
b10000000 g"
#2620
b10000100 z
b10000100 +"
b10000100 U"
b10000100 w
b10000100 *"
b10000100 h"
b10000100 q"
#2640
04
#2680
14
#2690
b1 X
b10000100 y
b10000100 X"
b10000100 Q
b10000100 !
b10000100 ""
b10000100 V"
b10000100 g"
#2700
b10001000 z
b10001000 +"
b10001000 U"
b10001000 w
b10001000 *"
b10001000 h"
b10001000 q"
#2720
04
#2760
14
#2770
b10 X
b10001000 y
b10001000 X"
b10001000 Q
b10001000 !
b10001000 ""
b10001000 V"
b10001000 g"
#2780
b10001100 z
b10001100 +"
b10001100 U"
b10001100 w
b10001100 *"
b10001100 h"
b10001100 q"
#2800
04
#2840
14
#2850
b11 X
b10001100 y
b10001100 X"
b10001100 Q
b10001100 !
b10001100 ""
b10001100 V"
b10001100 g"
#2860
b10010000 z
b10010000 +"
b10010000 U"
b10010000 w
b10010000 *"
b10010000 h"
b10010000 q"
#2880
04
#2920
14
#2930
b1001 '
b1001 ]
b1001 a
b0 X
b1 Z
b10010000 y
b10010000 X"
b10010000 Q
b10010000 !
b10010000 ""
b10010000 V"
b10010000 g"
#2940
b10010100 z
b10010100 +"
b10010100 U"
b10010100 w
b10010100 *"
b10010100 h"
b10010100 q"
#2960
04
#3000
14
#3010
b1 X
b10010100 y
b10010100 X"
b10010100 Q
b10010100 !
b10010100 ""
b10010100 V"
b10010100 g"
#3020
b10011000 z
b10011000 +"
b10011000 U"
b10011000 w
b10011000 *"
b10011000 h"
b10011000 q"
#3040
04
#3080
14
#3090
b10 X
b10011000 y
b10011000 X"
b10011000 Q
b10011000 !
b10011000 ""
b10011000 V"
b10011000 g"
#3100
b10011100 z
b10011100 +"
b10011100 U"
b10011100 w
b10011100 *"
b10011100 h"
b10011100 q"
#3120
04
#3160
14
#3170
b11 X
b10011100 y
b10011100 X"
b10011100 Q
b10011100 !
b10011100 ""
b10011100 V"
b10011100 g"
#3180
b10100000 z
b10100000 +"
b10100000 U"
b10100000 w
b10100000 *"
b10100000 h"
b10100000 q"
#3200
04
#3240
14
#3250
b1010 '
b1010 ]
b1010 a
b0 X
b10 Z
b10100000 y
b10100000 X"
b10100000 Q
b10100000 !
b10100000 ""
b10100000 V"
b10100000 g"
#3260
b10100100 z
b10100100 +"
b10100100 U"
b10100100 w
b10100100 *"
b10100100 h"
b10100100 q"
#3280
04
#3320
14
#3330
b1 X
b10100100 y
b10100100 X"
b10100100 Q
b10100100 !
b10100100 ""
b10100100 V"
b10100100 g"
#3340
b10101000 z
b10101000 +"
b10101000 U"
b10101000 w
b10101000 *"
b10101000 h"
b10101000 q"
#3360
04
#3400
14
#3410
b10 X
b10101000 y
b10101000 X"
b10101000 Q
b10101000 !
b10101000 ""
b10101000 V"
b10101000 g"
#3420
b10101100 z
b10101100 +"
b10101100 U"
b10101100 w
b10101100 *"
b10101100 h"
b10101100 q"
#3440
04
#3480
14
#3490
b11 X
b10101100 y
b10101100 X"
b10101100 Q
b10101100 !
b10101100 ""
b10101100 V"
b10101100 g"
#3500
b10110000 z
b10110000 +"
b10110000 U"
b10110000 w
b10110000 *"
b10110000 h"
b10110000 q"
#3520
04
#3560
14
#3570
b1011 '
b1011 ]
b1011 a
b0 X
b11 Z
b10110000 y
b10110000 X"
b10110000 Q
b10110000 !
b10110000 ""
b10110000 V"
b10110000 g"
#3580
b10110100 z
b10110100 +"
b10110100 U"
b10110100 w
b10110100 *"
b10110100 h"
b10110100 q"
#3600
04
#3640
14
#3650
b1 X
b10110100 y
b10110100 X"
b10110100 Q
b10110100 !
b10110100 ""
b10110100 V"
b10110100 g"
#3660
b10111000 z
b10111000 +"
b10111000 U"
b10111000 w
b10111000 *"
b10111000 h"
b10111000 q"
#3680
04
#3720
14
#3730
b10 X
b10111000 y
b10111000 X"
b10111000 Q
b10111000 !
b10111000 ""
b10111000 V"
b10111000 g"
#3740
b10111100 z
b10111100 +"
b10111100 U"
b10111100 w
b10111100 *"
b10111100 h"
b10111100 q"
#3760
04
#3800
14
#3810
b11 X
b10111100 y
b10111100 X"
b10111100 Q
b10111100 !
b10111100 ""
b10111100 V"
b10111100 g"
#3820
b11000000 z
b11000000 +"
b11000000 U"
b11000000 w
b11000000 *"
b11000000 h"
b11000000 q"
#3840
04
#3880
14
#3890
b1100 '
b1100 ]
b1100 a
b0 X
b100 Z
b11000000 y
b11000000 X"
b11000000 Q
b11000000 !
b11000000 ""
b11000000 V"
b11000000 g"
#3900
b11000100 z
b11000100 +"
b11000100 U"
b11000100 w
b11000100 *"
b11000100 h"
b11000100 q"
#3920
04
#3960
14
#3970
b1 X
b11000100 y
b11000100 X"
b11000100 Q
b11000100 !
b11000100 ""
b11000100 V"
b11000100 g"
#3980
b11001000 z
b11001000 +"
b11001000 U"
b11001000 w
b11001000 *"
b11001000 h"
b11001000 q"
#4000
04
#4040
14
#4050
b10 X
b11001000 y
b11001000 X"
b11001000 Q
b11001000 !
b11001000 ""
b11001000 V"
b11001000 g"
#4060
b11001100 z
b11001100 +"
b11001100 U"
b11001100 w
b11001100 *"
b11001100 h"
b11001100 q"
#4080
04
#4120
14
#4130
b11 X
b11001100 y
b11001100 X"
b11001100 Q
b11001100 !
b11001100 ""
b11001100 V"
b11001100 g"
#4140
b11010000 z
b11010000 +"
b11010000 U"
b11010000 w
b11010000 *"
b11010000 h"
b11010000 q"
#4160
04
#4200
14
#4210
b1101 '
b1101 ]
b1101 a
b0 X
b101 Z
b11010000 y
b11010000 X"
b11010000 Q
b11010000 !
b11010000 ""
b11010000 V"
b11010000 g"
#4220
b11010100 z
b11010100 +"
b11010100 U"
b11010100 w
b11010100 *"
b11010100 h"
b11010100 q"
#4240
04
#4280
14
#4290
b1 X
b11010100 y
b11010100 X"
b11010100 Q
b11010100 !
b11010100 ""
b11010100 V"
b11010100 g"
#4300
b11011000 z
b11011000 +"
b11011000 U"
b11011000 w
b11011000 *"
b11011000 h"
b11011000 q"
#4320
04
#4360
14
#4370
b10 X
b11011000 y
b11011000 X"
b11011000 Q
b11011000 !
b11011000 ""
b11011000 V"
b11011000 g"
#4380
b11011100 z
b11011100 +"
b11011100 U"
b11011100 w
b11011100 *"
b11011100 h"
b11011100 q"
#4400
04
#4440
14
#4450
b11 X
b11011100 y
b11011100 X"
b11011100 Q
b11011100 !
b11011100 ""
b11011100 V"
b11011100 g"
#4460
b11100000 z
b11100000 +"
b11100000 U"
b11100000 w
b11100000 *"
b11100000 h"
b11100000 q"
#4480
04
#4520
14
#4530
b1110 '
b1110 ]
b1110 a
b0 X
b110 Z
b11100000 y
b11100000 X"
b11100000 Q
b11100000 !
b11100000 ""
b11100000 V"
b11100000 g"
#4540
b11100100 z
b11100100 +"
b11100100 U"
b11100100 w
b11100100 *"
b11100100 h"
b11100100 q"
#4560
04
#4600
14
#4610
b1 X
b11100100 y
b11100100 X"
b11100100 Q
b11100100 !
b11100100 ""
b11100100 V"
b11100100 g"
#4620
b11101000 z
b11101000 +"
b11101000 U"
b11101000 w
b11101000 *"
b11101000 h"
b11101000 q"
#4640
04
#4680
14
#4690
b10 X
b11101000 y
b11101000 X"
b11101000 Q
b11101000 !
b11101000 ""
b11101000 V"
b11101000 g"
#4700
b11101100 z
b11101100 +"
b11101100 U"
b11101100 w
b11101100 *"
b11101100 h"
b11101100 q"
#4720
04
#4760
14
#4770
b11 X
b11101100 y
b11101100 X"
b11101100 Q
b11101100 !
b11101100 ""
b11101100 V"
b11101100 g"
#4780
b11110000 z
b11110000 +"
b11110000 U"
b11110000 w
b11110000 *"
b11110000 h"
b11110000 q"
#4800
04
#4840
14
#4850
b1111 '
b1111 ]
b1111 a
b0 X
b111 Z
b11110000 y
b11110000 X"
b11110000 Q
b11110000 !
b11110000 ""
b11110000 V"
b11110000 g"
#4860
b11110100 z
b11110100 +"
b11110100 U"
b11110100 w
b11110100 *"
b11110100 h"
b11110100 q"
#4880
04
#4920
14
#4930
b1 X
b11110100 y
b11110100 X"
b11110100 Q
b11110100 !
b11110100 ""
b11110100 V"
b11110100 g"
#4940
b11111000 z
b11111000 +"
b11111000 U"
b11111000 w
b11111000 *"
b11111000 h"
b11111000 q"
#4960
04
#5000
14
#5010
b10 X
b11111000 y
b11111000 X"
b11111000 Q
b11111000 !
b11111000 ""
b11111000 V"
b11111000 g"
#5020
b11111100 z
b11111100 +"
b11111100 U"
b11111100 w
b11111100 *"
b11111100 h"
b11111100 q"
#5040
04
#5080
14
#5090
b11 X
b11111100 y
b11111100 X"
b11111100 Q
b11111100 !
b11111100 ""
b11111100 V"
b11111100 g"
#5100
b100000000 z
b100000000 +"
b100000000 U"
b100000000 w
b100000000 *"
b100000000 h"
b100000000 q"
#5120
04
#5160
14
#5170
b10000 '
b10000 ]
b10000 a
b0 X
b0 Z
b10 V
b100000000 y
b100000000 X"
b100000000 Q
b100000000 !
b100000000 ""
b100000000 V"
b100000000 g"
#5179
0U
#5180
b100000100 z
b100000100 +"
b100000100 U"
b100000100 w
b100000100 *"
b100000100 h"
b100000100 q"
#5200
04
#5240
14
#5250
b1 X
b100000100 y
b100000100 X"
b100000100 Q
b100000100 !
b100000100 ""
b100000100 V"
b100000100 g"
#5260
b100001000 z
b100001000 +"
b100001000 U"
b100001000 w
b100001000 *"
b100001000 h"
b100001000 q"
#5280
04
#5320
14
#5330
b10 X
b100001000 y
b100001000 X"
b100001000 Q
b100001000 !
b100001000 ""
b100001000 V"
b100001000 g"
#5340
b100001100 z
b100001100 +"
b100001100 U"
b100001100 w
b100001100 *"
b100001100 h"
b100001100 q"
#5360
04
#5400
14
#5410
b11 X
b100001100 y
b100001100 X"
b100001100 Q
b100001100 !
b100001100 ""
b100001100 V"
b100001100 g"
#5420
b100010000 z
b100010000 +"
b100010000 U"
b100010000 w
b100010000 *"
b100010000 h"
b100010000 q"
#5440
04
#5480
14
#5490
b10001 '
b10001 ]
b10001 a
b0 X
b1 Z
b100010000 y
b100010000 X"
b100010000 Q
b100010000 !
b100010000 ""
b100010000 V"
b100010000 g"
